
"Resource/UI/ClassSelection.res"
{
	"class"
	{
		"ControlName"	"Frame"
		"fieldName"		"class"
		"xpos"			"0"
		"ypos"			"0"
		"wide"			"f0"
		"tall"			"480"
		"autoResize"	"0"
		"pinCorner"		"0"
		"visible"		"1"
		"enabled"		"1"
		"tabPosition"	"0"
	}
	
	"SysMenu"
	{
		"ControlName"	"Menu"
		"fieldName"		"SysMenu"
		"xpos"			"0"
		"ypos"			"0"
		"wide"			"64"
		"tall"			"24"
		"autoResize"	"0"
		"pinCorner"		"0"
		"visible"		"0"
		"enabled"		"0"
		"tabPosition"	"0"
	}
	
	"random"
	{
		"ControlName"		"CExImageButton"
		"fieldName"			"random"
		"xpos"				"c-115"
		"ypos"				"c109"
		"zpos"				"6"
		"wide"				"150"
		"tall"				"14"
		"autoResize"		"0"
		"pinCorner"			"2"
		"visible"			"1"
		"enabled"			"1"
		"tabPosition"		"0"
		"labelText"			"Random"
		"textAlignment"		"west"
		"Command"			"select 12"
		"Default"			"1"
		"font"				"HudFontSmallestBold"
		"scaleImage"		"1"
		
		"image_default"		"class_sel_sm_random_inactive"
		"image_armed"		"class_sel_sm_random_inactive"
		
		"fgcolor"			"255 255 255 255"
		"defaultFgColor_override" "255 255 255 255"
		"armedFgColor_override" "Highlight2"
		"depressedFgColor_override" "255 255 255 255"
		"selectedFgColor_override" "Highlight2"
		
		"sound_depressed"	"UI/buttonclick.wav"
		"sound_released"	"UI/buttonclickrelease.wav"
		"sound_armed"		"UI/buttonrollover.wav"
		
		"paintbackground"	"0"
		
		"image_drawcolor"		"Highlight2"
		"image_armedcolor"		"255 255 255 255"
		"image_selectedcolor"	"255 255 255 255"
		
		"stayselectedonclick"	"1"
		"selectonhover"			"1"
		"keyboardinputenabled"	"0"
		
		"SubImage"
		{
			"ControlName"	"ImagePanel"
			"fieldName"		"SubImage"
			"xpos"			"0"
			"ypos"			"0"
			"zpos"			"7"
			"wide"			"50"
			"tall"			"100"
			"visible"		"1"
			"enabled"		"1"
			"image"			"class_sel_sm_random_inactive"
			"scaleImage"	"1"
		}				
	}
		
	"randomLetter"  
	{
		"ControlName"	"CExButton"
		"fieldName"		"randomLetter"
		"xpos"			"c-170"
		"ypos"			"c109"
		"zpos"			"6"
		"wide"			"50"
		"tall"			"14"
		"autoResize"	"0"
		"pinCorner"		"2"
		"visible"		"1"
		"enabled"		"1"
		"tabPosition"	"0"
		"labelText"		"(&R)"
		"textAlignment"	"east"
		"Command"		"select 12"
		"border_default"	""
		"border_armed"		""
		"paintbackground"	"0"
		"font"			"HudFontSmallestBold"
		"fgcolor"			"Highlight"
			"defaultFgColor_override" "Highlight"
		"armedFgColor_override" "Highlight"
		"depressedFgColor_override" "Highlight"
		"selectedFgColor_override" "Highlight"
	}
		
	"Offense"
	{
		"ControlName"	"CExLabel"
		"fieldName"		"Offense"
		"xpos"			"c-300"
		"xpos_hidef"			"c-287"
		"xpos_lodef"	"c-260"
		"ypos"			"96"
		"ypos_hidef"			"102"
		"ypos_lodef"	"116"
		"zpos"			"2"
		"wide"			"90"
		"tall"			"12"
		"tall_lodef"			"22"
		"autoResize"	"1"
		"pinCorner"		"2"
		"visible"		"0"
		"enabled"		"1"
		"tabPosition"	"0"
		"labelText"		"#TF_Offense"
		"textAlignment"	"left"
		"font"			"MenuClassBuckets"
		"font_lodef"			"MenuMainTitle"
		"fgcolor"		"TanDark"
		"fgcolor_lodef"	"TanLight"
	}
	"scout"
	{
		"ControlName"		"CExImageButton"
		"fieldName"			"scout"
		"xpos"				"c-115"
		"ypos"				"c-70"
		"zpos"				"6"
		"wide"				"90"
		"tall"				"14"
		"autoResize"		"0"
		"pinCorner"			"2"
		"visible"			"1"
		"enabled"			"1"
		"tabPosition"		"0"
		"labelText"			"Scout"	
		"textAlignment"		"west"
		"Command"			"select 1"
		"Default"			"0"
		"font"			"HudFontSmallest"
		"scaleImage"		"1"
		
		"image_default"		"class_sel_sm_scout_inactive"
		"image_armed"		"class_sel_sm_scout_inactive"
		
		"fgcolor"			"255 255 255 255"
		"defaultFgColor_override" "255 255 255 255"
		"armedFgColor_override" "Highlight2"
		"depressedFgColor_override" "255 255 255 255"
		"selectedFgColor_override" "Highlight2"
			
		"sound_depressed"	"UI/buttonclick.wav"
		"sound_released"	"UI/buttonclickrelease.wav"
		"sound_armed"		"UI/buttonrollover.wav"
		
		"paintbackground"	"0"
		
		"image_drawcolor"		"255 255 255 180"
		"image_armedcolor"		"255 255 255 255"
		"image_selectedcolor"	"255 255 255 255"
		
		"stayselectedonclick"	"1"
		"selectonhover"			"1"
		"keyboardinputenabled"	"0"
		
		"SubImage"
		{
			"ControlName"	"ImagePanel"
			"fieldName"		"SubImage"
			"xpos"			"0"
			"ypos"			"0"
			"zpos"			"7"
			"wide"			"50"
			"tall"			"100"
			"visible"		"1"
			"enabled"		"1"
			"image"			"class_sel_sm_scout_inactive"
			"scaleImage"	"1"
		}				
	}
	"soldier"
	{
		"ControlName"		"CExImageButton"
		"fieldName"			"soldier"
		"xpos"				"c-115"
		"ypos"				"c-53"
		"zpos"				"6"
		"wide"				"90"
		"tall"				"14"
		"autoResize"		"0"
		"pinCorner"			"2"
		"visible"			"1"
		"enabled"			"1"
		"tabPosition"		"0"
		"labelText"			"Soldier"	
		"textAlignment"		"west"
		"Command"			"select 3"
		"Default"			"0"
		"font"				"HudFontSmallest"
		"scaleImage"		"1"
		
		"image_default"		"class_sel_sm_soldier_inactive"
		"image_armed"		"class_sel_sm_soldier_inactive"
		
		"fgcolor"			"255 255 255 255"
		"defaultFgColor_override" "255 255 255 255"
		"armedFgColor_override" "Highlight2"
		"depressedFgColor_override" "255 255 255 255"
		"selectedFgColor_override" "Highlight2"
		
		"sound_depressed"	"UI/buttonclick.wav"
		"sound_released"	"UI/buttonclickrelease.wav"
		"sound_armed"		"UI/buttonrollover.wav"
		
		"paintbackground"	"0"
		
		"image_drawcolor"		"255 255 255 180"
		"image_armedcolor"		"255 255 255 255"
		"image_selectedcolor"	"255 255 255 255"
		
		"stayselectedonclick"	"1"
		"selectonhover"			"1"
		"keyboardinputenabled"	"0"
		
		"SubImage"
		{
			"ControlName"	"ImagePanel"
			"fieldName"		"SubImage"
			"xpos"			"0"
			"ypos"			"0"
			"zpos"			"7"
			"wide"			"50"
			"tall"			"100"
			"visible"		"1"
			"enabled"		"1"
			"image"			"class_sel_sm_soldier_inactive"
			"scaleImage"	"1"
		}				
	}
	"pyro"
	{
		"ControlName"		"CExImageButton"
		"fieldName"			"pyro"
		"xpos"				"c-115"
		"ypos"				"c-36"
		"zpos"				"6"
		"wide"				"90"
		"tall"				"14"
		"autoResize"		"0"
		"pinCorner"			"2"
		"visible"			"1"
		"enabled"			"1"
		"tabPosition"		"0"
		"labelText"			"Pyro"	
		"textAlignment"		"west"
		"Command"			"select 7"
		"Default"			"0"
		"font"				"HudFontSmallest"
		"scaleImage"		"1"
		
		"image_default"		"class_sel_sm_pyro_inactive"
		"image_armed"		"class_sel_sm_pyro_inactive"
		
		"fgcolor"			"255 255 255 255"
		"defaultFgColor_override" "255 255 255 255"
		"armedFgColor_override" "Highlight2"
		"depressedFgColor_override" "255 255 255 255"
		"selectedFgColor_override" "Highlight2"
		
		"sound_depressed"	"UI/buttonclick.wav"
		"sound_released"	"UI/buttonclickrelease.wav"
		"sound_armed"		"UI/buttonrollover.wav"
		
		"paintbackground"	"0"
		
		"image_drawcolor"		"255 255 255 180"
		"image_armedcolor"		"255 255 255 255"
		"image_selectedcolor"	"255 255 255 255"
		
		"stayselectedonclick"	"1"
		"selectonhover"			"1"
		"keyboardinputenabled"	"0"
		
		"SubImage"
		{
			"ControlName"	"ImagePanel"
			"fieldName"		"SubImage"
			"xpos"			"0"
			"ypos"			"0"
			"zpos"			"7"
			"wide"			"50"
			"tall"			"100"
			"visible"		"1"
			"enabled"		"1"
			"image"			"class_sel_sm_pyro_inactive"
			"scaleImage"	"1"
		}				
	}
	
	"Defense"
	{
		"ControlName"	"CExLabel"
		"fieldName"		"Defense"
		"xpos"			"c-110"
		"xpos_hidef"			"c-105"
		"xpos_lodef"	"c-95"
		"ypos"			"96"
		"ypos_hidef"			"102"
		"ypos_lodef"	"116"
		"zpos"			"2"
		"wide"			"90"
		"tall"			"12"
		"tall_lodef"			"22"
		"autoResize"	"1"
		"pinCorner"		"2"
		"visible"		"0"
		"enabled"		"1"
		"tabPosition"	"0"
		"labelText"		"#TF_Defense"
		"textAlignment"	"left"
		"font"			"HudFontSmallest"
		"font_lodef"			"MenuMainTitle"
		"fgcolor"		"TanDark"
		"fgcolor_lodef"	"TanLight"
	}
	"demoman"
	{
		"ControlName"		"CExImageButton"
		"fieldName"			"demoman"
		"xpos"				"c-115"
		"ypos"				"c-19"
		"zpos"				"6"
		"wide"				"90"
		"tall"				"14"
		"autoResize"		"0"
		"pinCorner"			"2"
		"visible"			"1"
		"enabled"			"1"
		"tabPosition"		"0"
		"labelText"			"Demoman"	
		"textAlignment"		"west"
		"Command"			"select 4"
		"Default"			"0"
		"font"				"HudFontSmallest"
		"scaleImage"		"1"
		
		"image_default"		"class_sel_sm_demo_inactive"
		"image_armed"		"class_sel_sm_demo_inactive"
		
		"fgcolor"			"255 255 255 255"
		"defaultFgColor_override" "255 255 255 255"
		"armedFgColor_override" "Highlight2"
		"depressedFgColor_override" "255 255 255 255"
		"selectedFgColor_override" "Highlight2"
		
		"sound_depressed"	"UI/buttonclick.wav"
		"sound_released"	"UI/buttonclickrelease.wav"
		"sound_armed"		"UI/buttonrollover.wav"
		
		"paintbackground"	"0"
		
		"image_drawcolor"		"255 255 255 180"
		"image_armedcolor"		"255 255 255 255"
		"image_selectedcolor"	"255 255 255 255"
		
		"stayselectedonclick"	"1"
		"selectonhover"			"1"
		"keyboardinputenabled"	"0"
		
		"SubImage"
		{
			"ControlName"	"ImagePanel"
			"fieldName"		"SubImage"
			"xpos"			"0"
			"ypos"			"0"
			"zpos"			"7"
			"wide"			"50"
			"tall"			"100"
			"visible"		"1"
			"enabled"		"1"
			"image"			"class_sel_sm_demo_inactive"
			"scaleImage"	"1"
		}				
	}	
	"heavyweapons"
	{
		"ControlName"		"CExImageButton"
		"fieldName"			"heavyweapons"
		"xpos"				"c-115"
		"ypos"				"c-2"
		"zpos"				"6"
		"wide"				"90"
		"tall"				"14"
		"autoResize"		"0"
		"pinCorner"			"2"
		"visible"			"1"
		"enabled"			"1"
		"tabPosition"		"0"
		"labelText"			"Heavy"	
		"textAlignment"		"west"
		"Command"			"select 6"
		"Default"			"0"
		"font"				"HudFontSmallest"
		"scaleImage"		"1"
		
		"image_default"		"class_sel_sm_heavy_inactive"
		"image_armed"		"class_sel_sm_heavy_inactive"
		
		"fgcolor"			"255 255 255 255"
		"defaultFgColor_override" "255 255 255 255"
		"armedFgColor_override" "Highlight2"
		"depressedFgColor_override" "255 255 255 255"
		"selectedFgColor_override" "Highlight2"
		
		"sound_depressed"	"UI/buttonclick.wav"
		"sound_released"	"UI/buttonclickrelease.wav"
		"sound_armed"		"UI/buttonrollover.wav"
		
		"paintbackground"	"0"
		
		"image_drawcolor"		"255 255 255 180"
		"image_armedcolor"		"255 255 255 255"
		"image_selectedcolor"	"255 255 255 255"
		
		"stayselectedonclick"	"1"
		"selectonhover"			"1"
		"keyboardinputenabled"	"0"
		
		"SubImage"
		{
			"ControlName"	"ImagePanel"
			"fieldName"		"SubImage"
			"xpos"			"0"
			"ypos"			"0"
			"zpos"			"7"
			"wide"			"50"
			"tall"			"100"
			"visible"		"1"
			"enabled"		"1"
			"image"			"class_sel_sm_heavy_inactive"
			"scaleImage"	"1"
		}				
	}
	"engineer"
	{
		"ControlName"		"CExImageButton"
		"fieldName"			"engineer"
		"xpos"				"c-115"
		"ypos"				"c15"
		"zpos"				"6"
		"wide"				"90"
		"tall"				"14"
		"autoResize"		"0"
		"pinCorner"			"2"
		"visible"			"1"
		"enabled"			"1"
		"tabPosition"		"0"
		"labelText"			"Engineer"	
		"textAlignment"		"west"
		"Command"			"select 9"
		"Default"			"0"
		"font"				"HudFontSmallest"
		"scaleImage"		"1"
		
		"image_default"		"class_sel_sm_engineer_inactive"
		"image_armed"		"class_sel_sm_engineer_inactive"
		
		"fgcolor"			"255 255 255 255"
		"defaultFgColor_override" "255 255 255 255"
		"armedFgColor_override" "Highlight2"
		"depressedFgColor_override" "255 255 255 255"
		"selectedFgColor_override" "Highlight2"
		
		"sound_depressed"	"UI/buttonclick.wav"
		"sound_released"	"UI/buttonclickrelease.wav"
		"sound_armed"		"UI/buttonrollover.wav"
		
		"paintbackground"	"0"
		
		"image_drawcolor"		"255 255 255 180"
		"image_armedcolor"		"255 255 255 255"
		"image_selectedcolor"	"255 255 255 255"
		
		"stayselectedonclick"	"1"
		"selectonhover"			"1"
		"keyboardinputenabled"	"0"
		
		"SubImage"
		{
			"ControlName"	"ImagePanel"
			"fieldName"		"SubImage"
			"xpos"			"0"
			"ypos"			"0"
			"zpos"			"7"
			"wide"			"50"
			"tall"			"100"
			"visible"		"1"
			"enabled"		"1"
			"image"			"class_sel_sm_engineer_inactive"
			"scaleImage"	"1"
		}				
	}
	
	"Support"
	{
		"ControlName"	"CExLabel"
		"fieldName"		"Support"
		"xpos"			"c76"
		"xpos_hidef"			"c74"
		"xpos_lodef"	"c70"
		"ypos"			"96"
		"ypos_hidef"			"102"
		"ypos_lodef"	"116"
		"zpos"			"2"
		"wide"			"90"
		"tall"			"12"
		"tall_lodef"			"22"
		"autoResize"	"1"
		"pinCorner"		"2"
		"visible"		"0"
		"enabled"		"1"
		"tabPosition"	"0"
		"labelText"		"#TF_Support"
		"textAlignment"	"left"
		"font"			"MenuClassBuckets"
		"font_lodef"			"MenuMainTitle"
		"fgcolor"		"TanDark"
		"fgcolor_lodef"	"TanLight"
	}
	"medic"
	{
		"ControlName"		"CExImageButton"
		"fieldName"			"medic"
		"xpos"				"c-115"
		"ypos"				"c32"
		"zpos"				"6"
		"wide"				"90"
		"tall"				"14"
		"autoResize"		"0"
		"pinCorner"			"2"
		"visible"			"1"
		"enabled"			"1"
		"tabPosition"		"0"
		"labelText"			"Medic"	
		"textAlignment"		"west"
		"Command"			"select 5"
		"Default"			"0"
		"font"				"HudFontSmallest"
		"scaleImage"		"1"
		
		"image_default"		"class_sel_sm_medic_inactive"
		"image_armed"		"class_sel_sm_medic_inactive"
		
		"fgcolor"			"255 255 255 255"
		"defaultFgColor_override" "255 255 255 255"
		"armedFgColor_override" "Highlight2"
		"depressedFgColor_override" "255 255 255 255"
		"selectedFgColor_override" "Highlight2"
		
		"sound_depressed"	"UI/buttonclick.wav"
		"sound_released"	"UI/buttonclickrelease.wav"
		"sound_armed"		"UI/buttonrollover.wav"
		
		"paintbackground"	"0"
		
		"image_drawcolor"		"255 255 255 180"
		"image_armedcolor"		"255 255 255 255"
		"image_selectedcolor"	"255 255 255 255"
		
		"stayselectedonclick"	"1"
		"selectonhover"			"1"
		"keyboardinputenabled"	"0"
		
		"SubImage"
		{
			"ControlName"	"ImagePanel"
			"fieldName"		"SubImage"
			"xpos"			"0"
			"ypos"			"0"
			"zpos"			"7"
			"wide"			"50"
			"tall"			"100"
			"visible"		"1"
			"enabled"		"1"
			"image"			"class_sel_sm_medic_inactive"
			"scaleImage"	"1"
		}				
	}
	"sniper"
	{
		"ControlName"		"CExImageButton"
		"fieldName"			"sniper"
		"xpos"				"c-115"
		"ypos"				"c49"
		"zpos"				"6"
		"wide"				"90"
		"tall"				"14"
		"autoResize"		"0"
		"pinCorner"			"2"
		"visible"			"1"
		"enabled"			"1"
		"tabPosition"		"0"
		"labelText"			"Sniper"	
		"textAlignment"		"west"
		"Command"			"select 2"
		"Default"			"0"
		"font"				"HudFontSmallest"
		"scaleImage"		"1"
		
		"image_default"		"class_sel_sm_sniper_inactive"
		"image_armed"		"class_sel_sm_sniper_inactive"
		
		"fgcolor"			"255 255 255 255"
		"defaultFgColor_override" "255 255 255 255"
		"armedFgColor_override" "Highlight2"
		"depressedFgColor_override" "255 255 255 255"
		"selectedFgColor_override" "Highlight2"
		
		"sound_depressed"	"UI/buttonclick.wav"
		"sound_released"	"UI/buttonclickrelease.wav"
		"sound_armed"		"UI/buttonrollover.wav"
		
		"paintbackground"	"0"
		
		"image_drawcolor"		"255 255 255 180"
		"image_armedcolor"		"255 255 255 255"
		"image_selectedcolor"	"255 255 255 255"
		
		"stayselectedonclick"	"1"
		"selectonhover"			"1"
		"keyboardinputenabled"	"0"
		
		"SubImage"
		{
			"ControlName"	"ImagePanel"
			"fieldName"		"SubImage"
			"xpos"			"0"
			"ypos"			"0"
			"zpos"			"7"
			"wide"			"50"
			"tall"			"100"
			"visible"		"1"
			"enabled"		"1"
			"image"			"class_sel_sm_sniper_inactive"
			"scaleImage"	"1"
		}				
	}
	"spy"
	{
		"ControlName"		"CExImageButton"
		"fieldName"			"spy"
		"xpos"				"c-115"
		"ypos"				"c66"
		"zpos"				"6"
		"wide"				"90"
		"tall"				"14"
		"autoResize"		"0"
		"pinCorner"			"2"
		"visible"			"1"
		"enabled"			"1"
		"tabPosition"		"0"
		"labelText"			"Spy"	
		"textAlignment"		"west"
		"Command"			"select 8"
		"Default"			"0"
		"font"				"HudFontSmallest"
		"scaleImage"		"1"
		
		"image_default"		"class_sel_sm_spy_inactive"
		"image_armed"		"class_sel_sm_spy_inactive"
		
		"fgcolor"			"255 255 255 255"
		"defaultFgColor_override" "255 255 255 255"
		"armedFgColor_override" "Highlight2"
		"depressedFgColor_override" "255 255 255 255"
		"selectedFgColor_override" "Highlight2"
		
		"sound_depressed"	"UI/buttonclick.wav"
		"sound_released"	"UI/buttonclickrelease.wav"
		"sound_armed"		"UI/buttonrollover.wav"
		
		"paintbackground"	"0"
		
		"image_drawcolor"		"255 255 255 180"
		"image_armedcolor"		"255 255 255 255"
		"image_selectedcolor"	"255 255 255 255"
		
		"stayselectedonclick"	"1"
		"selectonhover"			"1"
		"keyboardinputenabled"	"0"
		
		"SubImage"
		{
			"ControlName"	"ImagePanel"
			"fieldName"		"SubImage"
			"xpos"			"0"
			"ypos"			"0"
			"zpos"			"7"
			"wide"			"50"
			"tall"			"100"
			"visible"		"1"
			"enabled"		"1"
			"image"			"class_sel_sm_spy_inactive"
			"scaleImage"	"1"
		}				
	}	

	"QuitButton"  
	{
		"ControlName"	"CExButton"
		"fieldName"		"QuitButton"
		"xpos"			"c-115"
		"ypos"			"c100"
		"zpos"			"6"
		"wide"			"150"
		"tall"			"14"
		"autoResize"	"0"
		"pinCorner"		"2"
		"visible"		"1"
		"enabled"		"1"
		"tabPosition"	"0"
		"labelText"		"Cancel"
		"textAlignment"	"west"
		"Command"		"vguicancel"
		"border_default"	""
		"border_armed"		""
		"paintbackground"	"0"
		"font"			"HudFontSmallestBold"
		"fgcolor"			"255 255 255 255"
		"defaultFgColor_override" "255 255 255 255"
		"armedFgColor_override" "Highlight2"
		"depressedFgColor_override" "255 255 255 255"
		"selectedFgColor_override" "Highlight2"
	}
	
	"QuitButtonLetter"  
	{
		"ControlName"	"CExButton"
		"fieldName"		"QuitButtonLetter"
		"xpos"			"c-170"
		"ypos"			"c100"
		"zpos"			"6"
		"wide"			"50"
		"tall"			"14"
		"autoResize"	"0"
		"pinCorner"		"2"
		"visible"		"1"
		"enabled"		"1"
		"tabPosition"	"0"
		"labelText"		"(&Q)"
		"textAlignment"	"east"
		"Command"		"vguicancel"
		"border_default"	""
		"border_armed"		""
		"paintbackground"	"0"
		"font"			"HudFontSmallestBold"
		"fgcolor"			"Highlight"
			"defaultFgColor_override" "Highlight"
		"armedFgColor_override" "Highlight"
		"depressedFgColor_override" "Highlight"
		"selectedFgColor_override" "Highlight"
	}
	
	"EditLoadoutButton"  
	{
		"ControlName"	"CExButton"
		"fieldName"		"EditLoadoutButton"
		"xpos"			"c-115"
		"ypos"			"c91"
		"zpos"			"6"
		"wide"			"150"
		"tall"			"14"
		"autoResize"	"0"
		"pinCorner"		"2"
		"visible"		"1"
		"enabled"		"1"
		"tabPosition"	"0"
		"labelText"		"Loadout"
		"textAlignment"	"west"
		"Command"		"openloadout"
		"border_default"	""
		"border_armed"		""
		"paintbackground"	"0"
		"font"			"HudFontSmallestBold"
		"fgcolor"			"255 255 255 255"
		"defaultFgColor_override" "255 255 255 255"
		"armedFgColor_override" "Highlight2"
		"depressedFgColor_override" "255 255 255 255"
		"selectedFgColor_override" "Highlight2"
	}
	
	"EditLoadoutButtonLetter"  
	{
		"ControlName"	"CExButton"
		"fieldName"		"EditLoadoutButtonLetter"
		"xpos"			"c-170"
		"ypos"			"c91"
		"zpos"			"6"
		"wide"			"50"
		"tall"			"14"
		"autoResize"	"0"
		"pinCorner"		"2"
		"visible"		"1"
		"enabled"		"1"
		"tabPosition"	"0"
		"labelText"		"(&E)"
		"textAlignment"	"east"
		"Command"		"openloadout"
		"border_default"	""
		"border_armed"		""
		"paintbackground"	"0"
		"font"			"HudFontSmallestBold"
		"fgcolor"			"Highlight"
			"defaultFgColor_override" "Highlight"
		"armedFgColor_override" "Highlight"
		"depressedFgColor_override" "Highlight"
		"selectedFgColor_override" "Highlight"
	}

	"ResetButton"  
	{
		"ControlName"	"CExButton"
		"fieldName"		"ResetButton"
		"xpos"			"r470"
		"ypos"			"r38"
		"zpos"			"6"
		"wide"			"110"
		"tall"			"25"
		"autoResize"	"0"
		"pinCorner"		"2"
		"visible"		"0"
		"enabled"		"1"
		"tabPosition"	"0"
		"labelText"		"#TF_ClassMenu_Reset"
		"textAlignment"	"center"
		"Command"		"resetclass"
		"font"			"HudFontSmallestBold"
	}

	"ClassMenuSelect"
	{
		"ControlName"	"CExLabel"
		"fieldName"		"ClassMenuSelect"
		"xpos"			"30"
		"xpos_lodef"			"62"
		"xpos_hidef"			"72"
		"ypos"			"r40"
		"ypos_lodef"			"r60"
		"ypos_hidef"			"r54"
		"zpos"			"5"
		"wide"			"0"
		"tall"			"0"
		"autoResize"	"0"
		"pinCorner"		"0"
		"visible"		"0"
		"visible_lodef"	"0"
		"enabled"		"1"
		"labelText"		"#TF_SelectAClass"
		"textAlignment"	"west"
		"font"			"MenuMainTitle"
		"fgcolor"		"HudOffWhite"
	}
	
	"MenuBG"
	{
		"ControlName"	"CModelPanel"
		"fieldName"		"MenuBG"
		"xpos"			"0"
		"ypos"			"0"
		"zpos"			"0"		
		"wide"			"f0"
		"tall"			"480"
		"autoResize"	"0"
		"pinCorner"		"0"
		"visible"		"0"
		"enabled"		"1"
		"fov"			"16"
		
		"model"
		{
			"modelname"	"models/vgui/UI_class01.mdl"
			"skin"		"0"
			"angles_x" "0"
			"angles_y" "180"
			"angles_z" "0"
			"origin_x" "365"
			"origin_x_lodef" "415"
			"origin_x_hidef" "380"
			"origin_y" "0"
			"origin_z" "-40"
		}
	}	

	"Hint"
	{	
		"ControlName"	"CExLabel"
		"fieldName"		"Hint"
		"xpos"			"c-300"
		"xpos_hidef"	"c-287"
		"xpos_lodef"	"c-260"
		"ypos"			"95"
		"ypos_hidef"	"101"
		"ypos_lodef"	"115"
		"zpos"			"2"
		"wide"			"600"
		"tall"			"50"
		"tall_lodef"	"30"
		"autoResize"	"1"
		"pinCorner"		"2"
		"visible"		"0"
		"enabled"		"1"
		"tabPosition"	"0"
		"labelText"		"%hint%"
		"textAlignment"	"left"
		"wrap"			"1"
		"font"			"HudFontMediumSmallSecondary"
		"font_lodef"	"HudFontMediumSmallSecondary"
		"fgcolor"		"HudTrainingHint"
		"fgcolor_lodef"	"HudTrainingHint"
	}
	
	"ShadedBar"
	{
		"ControlName"	"ImagePanel"
		"fieldName"		"ShadedBar"
		"xpos"			"0"
		"ypos"			"r500"
		"zpos"			"0"
		"wide"			"f0"
		"tall"			"1000"
		"visible"		"1"
		"enabled"		"1"
		"PaintBackgroundType"	"0"
		"fillcolor"		"0 0 0 200"
	}		
	
	"Footer" [$X360]
	{
		"ControlName"		"CTFFooter"
		"fieldName"			"Footer"
		"zpos"				"6"
		"tall"				"80"
		"button_separator"	"10"
		"button_separator_lodef"	"5"
		"buttongap"			"50"
		"buttongap_hidef"		"35"
		"buttongap_lodef"			"18"
		"textadjust"		"3"
		"textadjust_lodef"		"0"
		"buttonoffsety"		"20"
		"buttonoffsety_hidef"		"0"
		"buttonoffsety_lodef"		"18"
		"center"			"0"
		"button_pin_right_lodef"	"55"
		"fonttext"			"MatchmakingDialogMenuLarge"
		"fonttext_lodef"			"MatchmakingDialogMenuSmall"
		"fgcolor"			"HudOffWhite" 	
		
		"button"
		{
			"name"		"cancel"
			"text"		"#GameUI_Cancel"
			"icon"		"#GameUI_Icons_B_BUTTON"	
		}
		
		"button"
		{
			"name"		"nextprev"
			"text"		"#TF_NextPrev"
			"icon"		"#GameUI_Icons_DPAD"	
		}				
		
		"button"
		{
			"name"		"select"
			"text"		"#GameUI_Select"
			"icon"		"#GameUI_Icons_A_BUTTON"	
		}
	}
	
	"localPlayerImage" 
	{
		"ControlName"	"CTFImagePanel"
		"fieldName"		"localPlayerImage"
		"xpos"			"c-30"
		"ypos"			"330"
		"zpos"			"9"
		"wide"			"0"
		"tall"			"0"
		"visible"		"0"
		"enabled"		"1"
		"image"			""	
		"scaleImage"	"1"	
	}
	
	"localPlayerBG"
	{
		"ControlName"	"CTFImagePanel"
		"fieldName"		"localPlayerBG"
		"xpos"			"c-35"
		"ypos"			"345"
		"zpos"			"2"
		"wide"			"0"
		"tall"			"0"
		"autoResize"	"0"
		"pinCorner"		"0"
		"visible"		"0"
		"enabled"		"1"
		"image"			"../hud/color_panel_clear"
		"scaleImage"	"1"	
		"teambg_2"		"../hud/color_panel_clear"
		"teambg_3"		"../hud/color_panel_clear"
			
		"src_corner_height"		"23"			// pixels inside the image
		"src_corner_width"		"23"
				
		"draw_corner_width"		"5"				// screen size of the corners ( and sides ), proportional
		"draw_corner_height" 	"5"	
	}
	
	"countImage0" 
	{
		"ControlName"	"CTFImagePanel"
		"fieldName"		"countImage0"
		"xpos"			"c20"
		"ypos"			"345"
		"zpos"			"9"
		"wide"			"0"
		"tall"			"60"
		"visible"		"0"
		"enabled"		"1"
		"image"			""	
		"scaleImage"	"1"	
	}							
	
	"countImage1" 
	{
		"ControlName"	"CTFImagePanel"
		"fieldName"		"countImage1"
		"xpos"			"c45"
		"ypos"			"345"
		"zpos"			"9"
		"wide"			"0"
		"tall"			"60"
		"visible"		"0"
		"enabled"		"1"
		"image"			""	
		"scaleImage"	"1"	
	}
	
	"countImage2" 
	{
		"ControlName"	"CTFImagePanel"
		"fieldName"		"countImage2"
		"xpos"			"c70"
		"ypos"			"345"
		"zpos"			"9"
		"wide"			"0"
		"tall"			"60"
		"visible"		"0"
		"enabled"		"1"
		"image"			""	
		"scaleImage"	"1"	
	}
	
	"countImage3" 
	{
		"ControlName"	"CTFImagePanel"
		"fieldName"		"countImage3"
		"xpos"			"c95"
		"ypos"			"345"
		"zpos"			"9"
		"wide"			"0"
		"tall"			"60"
		"visible"		"0"
		"enabled"		"1"
		"image"			""	
		"scaleImage"	"1"	
	}
	
	"countImage4" 
	{
		"ControlName"	"CTFImagePanel"
		"fieldName"		"countImage4"
		"xpos"			"c120"
		"ypos"			"345"
		"zpos"			"9"
		"wide"			"0"
		"tall"			"60"
		"visible"		"0"
		"enabled"		"1"
		"image"			""	
		"scaleImage"	"1"	
	}
	
	"countImage5" 
	{
		"ControlName"	"CTFImagePanel"
		"fieldName"		"countImage5"
		"xpos"			"c145"
		"ypos"			"345"
		"zpos"			"9"
		"wide"			"0"
		"tall"			"60"
		"visible"		"0"
		"enabled"		"1"
		"image"			""	
		"scaleImage"	"1"	
	}
	
	"countImage6" 
	{
		"ControlName"	"CTFImagePanel"
		"fieldName"		"countImage6"
		"xpos"			"c170"
		"ypos"			"345"
		"zpos"			"9"
		"wide"			"0"
		"tall"			"60"
		"visible"		"0"
		"enabled"		"1"
		"image"			""	
		"scaleImage"	"1"	
	}
	
	"countImage7" 
	{
		"ControlName"	"CTFImagePanel"
		"fieldName"		"countImage7"
		"xpos"			"c195"
		"ypos"			"345"
		"zpos"			"9"
		"wide"			"0"
		"tall"			"60"
		"visible"		"0"
		"enabled"		"1"
		"image"			""	
		"scaleImage"	"1"	
	}
	
	"countImage8" 
	{
		"ControlName"	"CTFImagePanel"
		"fieldName"		"countImage8"
		"xpos"			"c220"
		"ypos"			"345"
		"zpos"			"9"
		"wide"			"0"
		"tall"			"60"
		"visible"		"0"
		"enabled"		"1"
		"image"			""	
		"scaleImage"	"1"	
	}
	
	"countImage9" 
	{
		"ControlName"	"CTFImagePanel"
		"fieldName"		"countImage9"
		"xpos"			"c245"
		"ypos"			"345"
		"zpos"			"9"
		"wide"			"0"
		"tall"			"60"
		"visible"		"0"
		"enabled"		"1"
		"image"			""	
		"scaleImage"	"1"	
	}
	
	"countImage10" 
	{
		"ControlName"	"CTFImagePanel"
		"fieldName"		"countImage10"
		"xpos"			"c270"
		"ypos"			"345"
		"zpos"			"9"
		"wide"			"0"
		"tall"			"60"
		"visible"		"0"
		"enabled"		"1"
		"image"			""	
		"scaleImage"	"1"	
	}
	
	"CountLabel" 
	{
		"ControlName"	"CExLabel"
		"fieldName"		"CountLabel"
		"xpos"			"c35"
		"ypos"			"402"
		"zpos"			"10"
		"wide"			"0"
		"tall"			"18"
		"autoResize"	"1"
		"pinCorner"		"2"
		"visible"		"1"
		"enabled"		"1"
		"tabPosition"	"0"
		"labelText"		""
		"textAlignment"	"left"
		"font"			"HudFontMediumSmallSecondary"
		"fgcolor"		"TanLight"
	}
	
	"numScout" 
	{
		"ControlName"	"CExLabel"
		"fieldName"		"numScout"
		"xpos"			"c-170"
		"ypos"			"c-70"
		"zpos"			"5"
		"wide"			"50"
		"tall"			"14"
		"visible"		"1"
		"enabled"		"1"
		"tabPosition"	"0"
		"labelText"		"%numScout%"
		"textAlignment"	"east"
		"font"			"HudFontSmallest"
		"fgcolor"		"Highlight"
	}	
	
	"numSoldier" 
	{
		"ControlName"	"CExLabel"
		"fieldName"		"numSoldier"
		"xpos"			"c-170"
		"ypos"			"c-53"
		"zpos"			"5"
		"wide"			"50"
		"tall"			"14"
		"visible"		"1"
		"enabled"		"1"
		"tabPosition"	"0"
		"labelText"		"%numSoldier%"
		"textAlignment"	"east"
		"font"			"HudFontSmallest"
		"fgcolor"		"Highlight"
	}		
	
	"numPyro" 
	{
		"ControlName"	"CExLabel"
		"fieldName"		"numPyro"
		"xpos"			"c-170"
		"ypos"			"c-36"
		"zpos"			"5"
		"wide"			"50"
		"tall"			"14"
		"visible"		"1"
		"enabled"		"1"
		"tabPosition"	"0"
		"labelText"		"%numPyro%"
		"textAlignment"	"east"
		"font"			"HudFontSmallest"
		"fgcolor"		"Highlight"
	}			
	
	"numDemoman" 
	{
		"ControlName"	"CExLabel"
		"fieldName"		"numDemoman"
		"xpos"			"c-170"
		"ypos"			"c-19"
		"zpos"			"5"
		"wide"			"50"
		"tall"			"14"
		"visible"		"1"
		"enabled"		"1"
		"labelText"		"%numDemoman%"
		"textAlignment"	"east"
		"font"			"HudFontSmallest"
		"fgcolor"		"Highlight"
	}				
	
	"numHeavy" 
	{
		"ControlName"	"CExLabel"
		"fieldName"		"numHeavy"
		"xpos"			"c-170"
		"ypos"			"c-2"
		"zpos"			"5"
		"wide"			"50"
		"tall"			"14"
		"visible"		"1"
		"enabled"		"1"
		"tabPosition"	"0"
		"labelText"		"%numHeavy%"
		"textAlignment"	"east"
		"font"			"HudFontSmallest"
		"fgcolor"		"Highlight"
	}					
	
	"numEngineer" 
	{
		"ControlName"	"CExLabel"
		"fieldName"		"numEngineer"
		"xpos"			"c-170"
		"ypos"			"c15"
		"zpos"			"5"
		"wide"			"50"
		"tall"			"14"
		"visible"		"1"
		"enabled"		"1"
		"tabPosition"	"0"
		"labelText"		"%numEngineer%"
		"textAlignment"	"east"
		"font"			"HudFontSmallest"
		"fgcolor"		"Highlight"
	}						
	
	"numMedic" 
	{
		"ControlName"	"CExLabel"
		"fieldName"		"numMedic"
		"xpos"			"c-170"
		"ypos"			"c32"
		"zpos"			"5"
		"wide"			"50"
		"tall"			"14"
		"autoResize"	"1"
		"enabled"		"1"
		"tabPosition"	"0"
		"labelText"		"%numMedic%"
		"textAlignment"	"east"
		"font"			"HudFontSmallest"
		"fgcolor"		"Highlight"
	}							
	
	"numSniper" 
	{
		"ControlName"	"CExLabel"
		"fieldName"		"numSniper"
		"xpos"			"c-170"
		"ypos"			"c49"
		"zpos"			"5"
		"wide"			"50"
		"tall"			"14"
		"visible"		"1"
		"enabled"		"1"
		"tabPosition"	"0"
		"labelText"		"%numSniper%"
		"textAlignment"	"east"
		"font"			"HudFontSmallest"
		"fgcolor"		"Highlight"
	}						
	
	"numSpy" 
	{
		"ControlName"	"CExLabel"
		"fieldName"		"numSpy"
		"xpos"			"c-170"
		"ypos"			"c66"
		"zpos"			"5"
		"wide"			"50"
		"tall"			"14"
		"visible"		"1"
		"enabled"		"1"
		"tabPosition"	"0"
		"labelText"		"%numSpy%"
		"textAlignment"	"east"
		"font"			"HudFontSmallest"
		"fgcolor"		"Highlight"
	}								
	
	"TFPlayerModel"
	{
		"ControlName"	"CTFPlayerModelPanel"
		"fieldName"		"TFPlayerModel"
		
		"xpos"			"c-350"
		"ypos"			"r490"
		"zpos"			"6"		
		"wide"			"600"
		"tall"			"480"
		
		"autoResize"	"0"
		"pinCorner"		"0"
		"visible"		"1"
		"enabled"		"1"
		
		"render_texture"    "0"
		"fov"			"25"
		"allow_rot"		"0"

		"paintbackground" "1"		
		"paintbackgroundenabled" "1"
		"bgcolor_override" "255 255 255 0"
		
		"model"
		{
			"force_pos"	"1"

			"angles_x" "0"
			"angles_y" "180"
			"angles_z" "0"
			"origin_x" "520"
			"origin_y" "-50"
			"origin_z" "-49"
			"frame_origin_x"	"0"
			"frame_origin_y"	"0"
			"frame_origin_z"	"0"
			"spotlight" "1"
		
			"modelname"		""
			"vcd"		"class_select.vcd"								
		}
	}
	
	"ClassInfoPanel"
	{
		"ControlName"	"CTFClassInfoPanel"
		"fieldName"		"ClassInfoPanel"
		"xpos"			"c46"
		"ypos"			"c-79"
		"zpos"			"7"
		"wide"			"225"
		"tall"			"160"
		"autoResize"	"0"
		"pinCorner"		"0"
		"visible"		"0"
		"enabled"		"1"
		"tabPosition"	"0"
	}
}
