"Resource/UI/HudPlayerHealth.res"
{	
	"HealthBG"	
	{
		"ControlName"	"CExImageButton"
		"fieldName"		"HealthBG"
		"xpos"		"64"		[$OSX]
		"xpos"		"54"		[!$OSX]
		"ypos"		"133"		[$OSX]
		"ypos"		"136"		[!$OSX]
		"zpos"		"4"
		"wide"		"106"		[$OSX]
		"wide"		"120"		[!$OSX]
		"tall"		"45"
		"autoResize"	"0"
		"pinCorner"	"0"
		"visible"		"1"
		"enabled"		"1"
		"defaultBgColor_Override"		"HudBGStatus"
		"border_default"				"noborder"
		"PaintBackgroundType""0"
        "textinsety" "99"
    }
	"PlayerStatusHealthValue"
	{
		"ControlName"	"CExLabel"
		"fieldName"		"PlayerStatusHealthValue"
		"xpos"			"9"
		"ypos"			"129"	
		"zpos"			"5"
		"wide"			"159"
		"tall"			"57"
		"visible"		"1"
		"enabled"		"1"
		"labelText"		"%Health%"
		"textAlignment"	"east"			
		"font"			"Dock11Big"		[$OSX]
		"font"			"Dock11Big"		[!$OSX]
		"fgcolor"		"Health"
	}
	"PlayerStatusHealthValueShadow"
	{
		"ControlName"	 "CExLabel"	
		"fieldName"	 "PlayerStatusHealthValueShadow"	
		"xpos"	 "10"	
		"ypos"	 "131"	
		"zpos"	 "3"	
		"wide"	 "159"	
		"tall"	 "56"	
		"visible"	 "1"	
		"enabled"	 "1"	
		"labelText"	 "%Health%"	
		"textAlignment"	 "east"	
		"font"			"Dock11Big"		[$OSX]
		"font"			"Dock11Big"		[!$OSX]
		"fgcolor"	 "HudShadow"
	}
	"PlayerStatusMaxHealthValue"
	{
		"ControlName"	"CExLabel"
		"fieldName"		"PlayerStatusMaxHealthValue"
		"xpos"			"9"
		"ypos"			"162"
		"zpos"			"6"
		"wide"			"159"
		"tall"			"57"
		"visible"		"1"
		"enabled"		"1"
		"labelText"		"%MaxHealth%"
		"textAlignment"	"east"	
		"font"			"DefaultVerySmall"
		"fgcolor"		"Health"
	}
	"PlayerStatusMaxHealthValueShadow"
	{
		"ControlName"	"CExLabel"
		"fieldName"		"PlayerStatusMaxHealthValueShadow"
		"xpos"			"10"
		"ypos"			"163"
		"zpos"			"6"
		"wide"			"159"
		"tall"			"57"
		"visible"		"1"
		"enabled"		"1"
		"labelText"		"%MaxHealth%"
		"textAlignment"	"east"	
		"font"			"DefaultVerySmall"
		"fgcolor"		"HudShadow"
	}		
	"HudPlayerHealth"
	{
		"ControlName"	"EditablePanel"
		"fieldName"		"HudPlayerHealth"
		"xpos"			"c-264"		
		"ypos"			"r281"
		"zpos"			"2"
		"wide"			"310"
		"tall"			"222"
		"visible"		"1"
		"enabled"		"1"	
		"HealthBonusPosAdj"	"35"
		"HealthDeathWarning"	"0.49"
		"HealthDeathWarningColor"	"Red"
	}
	"xHairNormal"
	{
		"controlName"	"CExLabel"
		"fieldName"	 	"xHairNormal"
		"visible"		"0"
		"enabled"		"1"
		"zpos"			"1"
		"xpos"			"252"
		"ypos"			"20"
		"wide"			"24"
		"tall"			"26"
		"font"			"xHairNormal"
		"labelText"		"+"
		"fgcolor"		"White"
		"textAlignment"	"center"
	}
	"xHairThin"
	{
		"controlName"	"CExLabel"
		"fieldName"	 	"xHairThin"
		"visible"		"0"
		"enabled"		"1"
		"zpos"			"1"
		"xpos"			"252"
		"ypos"			"21"
		"wide"			"25"
		"tall"			"26"
		"font"			"xHairThin"
		"labelText"		"+"
		"fgcolor"		"Garm3nxHair"
		"textAlignment"	"center"
	}
	"xHairThinOutline"
	{
		"controlName"	"CExLabel"
		"fieldName"	 	"xHairThinOutline"
		"visible"		"0"
		"enabled"		"1"
		"zpos"			"1"
		"xpos"			"252"
		"ypos"			"21"
		"wide"			"25"
		"tall"			"27"
		"font"			"xHairThinOutline"
		"labelText"		"+"
		"fgcolor"		"Garm3nxHair"
		"textAlignment"	"center"
	}
	"xHairRequest"
	{
		"controlName"	"CExLabel"
		"fieldName"	 	"xHairRequest"
		"visible"		"0"
		"enabled"		"1"
		"zpos"			"1"
		"xpos"			"251"
		"ypos"			"23"
		"wide"			"27"
		"tall"			"27"
		"font"			"xHairRequest"
		"labelText"		"+"
		"fgcolor"		"Garm3nxHair"
		"textAlignment"	"center"
	}
	"xHairCircle"
	{
		"controlName"	"CExLabel"
		"fieldName"	 	"xHairCircle"
		"visible"		"0"
		"enabled"		"1"
		"zpos"			"2"
		"xpos"			"247"
		"ypos"			"20"
		"wide"			"34"
		"tall"			"33"
		"font"			"xHairCircle"
		"labelText"		"i"	
		"fgcolor"		"Garm3nxHair"
		"textAlignment"	"center"
	}
	"xHairDotOutline"
	{
		"controlName"	"CExLabel"
		"fieldName"	 	"xHairDotOutline"
		"visible"		"0"
		"enabled"		"1"
		"zpos"			"1"
		"xpos"			"251"
		"ypos"			"24"
		"wide"			"27"
		"tall"			"25"
		"font"			"xHairDotOutline"
		"labelText"		"+"
		"fgcolor"		"Garm3nxHair"
		"textAlignment"	"center"
}
	"YAHUDCrossBackground"	
		{
		"ControlName"	"ImagePanel"
		"fieldName"		"CrossBG"
		"xpos"		"0"
		"ypos"		"131"
		"zpos"		"1"
		"wide"		"60"
		"tall"		"55"
		"autoResize"	"0"
		"pinCorner"	"0"
		"visible"		"0"
		"enabled"		"1"
		"fillcolor"		"HudBG"
		"PaintBackgroundType""0"
	}
	
	"PlayerStatusHealthImage"
	{
		"ControlName"	"ImagePanel"
		"fieldName"		"PlayerStatusHealthImage"
		"xpos"			"38"
		"ypos"			"138"  //138
		"zpos"			"4"
		"wide"			"42"	
		"tall"			"42"
		"visible"		"0" 
		"enabled"		"0"
		"scaleImage"	"0"	
	}		
	"PlayerStatusHealthImageBG"
	{
		"ControlName"	"ImagePanel"
		"fieldName"		"PlayerStatusHealthImageBG"
		"xpos"			"15"
		"ypos"			"1360"	//136
		"zpos"			"3"
		"wide"			"46"	
		"tall"			"46"
		"visible"		"0"
		"enabled"		"0"
		"image"			"../hud/health_bg"
		"scaleImage"	"1"	
	}	
	"PlayerStatusHealthBonusImage"
	{
		"ControlName"	"CExLabel"
		"fieldName"		"PlayerStatusHealthBonusImage"
		"xpos"			"57"	
		"ypos"			"99999"	//126 	
		"zpos"			"4"
		"wide"			"0"		//76	
		"tall"			"0"		//76
		"visible"		"0"			//overheal cross
		"enabled"		"0"
		"image"			"../hud/health_over_bg"
		"scaleImage"	"1"
	}
	"PlayerStatusBleedImage"
	{
		"ControlName"	"ImagePanel"
		"fieldName"		"PlayerStatusBleedImage"
		"xpos"			"0"
		"ypos"			"152"       //180
		"zpos"			"7"
		"wide"			"16"
		"tall"			"16"
		"visible"		"1"		//1
		"enabled"		"1"
		"scaleImage"	"1"	
		"image"			"../vgui/bleed_drop"
		"fgcolor"		"TanDark"
	}
	"PlayerStatusHookBleedImage"
	{
		"ControlName"	"ImagePanel"
		"fieldName"		"PlayerStatusHookBleedImage"
		"xpos"			"0"
		"ypos"			"152"
		"zpos"			"8"
		"wide"			"16"
		"tall"			"16"
		"visible"		"1"
		"enabled"		"1"
		"scaleImage"	"1"	
		"image"			"../vgui/bleed_drop_grapple"
		"fgcolor"		"TanDark"
	}		
	"PlayerStatusMilkImage"
	{
		"ControlName"	"ImagePanel"
		"fieldName"		"PlayerStatusMilkImage"
		"xpos"			"0"
		"ypos"			"152"       //180
		"zpos"			"7"
		"wide"			"16"
		"tall"			"16"
		"visible"		"1"		//1
		"enabled"		"1"
		"scaleImage"	"1"	
		"image"			"../vgui/bleed_drop"
		"fgcolor"		"TanDark"
	}
	"PlayerStatusGasImage"
	{
		"ControlName"	"ImagePanel"
		"fieldName"		"PlayerStatusGasImage"
		"xpos"			"0"
		"ypos"			"152"
		"zpos"			"7"
		"wide"			"16"
		"tall"			"16"
		"visible"		"1"
		"enabled"		"1"
		"scaleImage"	"1"	
		"image"			"../vgui/covered_in_gas"
		"fgcolor"		"TanDark"
	}	
	"PlayerStatusMarkedForDeathImage"
	{
		"ControlName"	"ImagePanel"
		"fieldName"		"PlayerStatusMarkedForDeathImage"
		"xpos"			"0"
		"ypos"			"152"       //180
		"zpos"			"7"
		"wide"			"16"
		"tall"			"16"
		"visible"		"1"		//1
		"enabled"		"1"
		"scaleImage"	"1"	
		"image"			"../vgui/marked_for_death"
		"fgcolor"		"TanDark"
	}
	"PlayerStatusMarkedForDeathSilentImage"
	{
		"ControlName"	"ImagePanel"
		"fieldName" "PlayerStatusMarkedForDeathSilentImage"
		"xpos"			"0"
		"ypos"			"152"       //180
		"zpos"			"7"
		"wide"			"16"
		"tall"			"16"
		"visible"		"1"		//1
		"enabled"		"1"
		"scaleImage"	"1"	
		"image"			"../vgui/marked_for_death"
		"fgcolor"		"TanDark"
	}
	"PlayerStatus_MedicUberBulletResistImage"
	{
		"ControlName"	"ImagePanel"
		"fieldName"		"PlayerStatus_MedicUberBulletResistImage"
		"xpos"			"0"
		"ypos"			"145"
		"zpos"			"7"
		"wide"			"20" // 20
		"tall"			"20" // 20
		"visible"		"1"
		"enabled"		"1"
		"scaleImage"	"1"	
		"image"			"../HUD/defense_buff_bullet_blue"
		"fgcolor"		"TanDark"
	}
	"PlayerStatus_MedicUberBlastResistImage"
	{
		"ControlName"	"ImagePanel"
		"fieldName"		"PlayerStatus_MedicUberBlastResistImage"
		"xpos"			"0"
		"ypos"			"145"
		"zpos"			"7"
		"wide"			"20" // 20
		"tall"			"20" // 20
		"visible"		"1"
		"enabled"		"1"
		"scaleImage"	"1"	
		"image"			"../HUD/defense_buff_explosion_blue"
		"fgcolor"		"TanDark"
	}
	"PlayerStatus_MedicUberFireResistImage"
	{
		"ControlName"	"ImagePanel"
		"fieldName"		"PlayerStatus_MedicUberFireResistImage"
		"xpos"			"0"
		"ypos"			"145"
		"zpos"			"7"
		"wide"			"20" // 20
		"tall"			"20" // 20
		"visible"		"1"
		"enabled"		"1"
		"scaleImage"	"1"	
		"image"			"../HUD/defense_buff_fire_blue"
		"fgcolor"		"TanDark"
	}

	"PlayerStatus_MedicSmallBulletResistImage"
	{
		"ControlName"	"ImagePanel"
		"fieldName"		"PlayerStatus_MedicSmallBulletResistImage"
		"xpos"			"0"
		"ypos"			"145"
		"zpos"			"7"
		"wide"			"20" // 20
		"tall"			"20" // 20
		"visible"		"1"
		"enabled"		"1"
		"scaleImage"	"1"	
		"image"			"../HUD/defense_buff_bullet_blue"
		"fgcolor"		"TanDark"
	}
	"PlayerStatus_MedicSmallBlastResistImage"
	{
		"ControlName"	"ImagePanel"
		"fieldName"		"PlayerStatus_MedicSmallBlastResistImage"
		"xpos"			"0"
		"ypos"			"145"
		"zpos"			"7"
		"wide"			"20" // 20
		"tall"			"20" // 20
		"visible"		"1"
		"enabled"		"1"
		"scaleImage"	"1"	
		"image"			"../HUD/defense_buff_explosion_blue"
		"fgcolor"		"TanDark"
	}
	"PlayerStatus_MedicSmallFireResistImage"
	{
		"ControlName"	"ImagePanel"
		"fieldName"		"PlayerStatus_MedicSmallFireResistImage"
		"xpos"			"0"
		"ypos"			"145"
		"zpos"			"7"
		"wide"			"20" // 20
		"tall"			"20" // 20
		"visible"		"1"
		"enabled"		"1"
		"scaleImage"	"1"	
		"image"			"../HUD/defense_buff_fire_blue"
		"fgcolor"		"TanDark"
	}
	
	
	"PlayerStatus_WheelOfDoom"
	{
		"ControlName"	"ImagePanel"
		"fieldName"		"PlayerStatus_WheelOfDoom"
		"xpos"			"0"
		"ypos"			"152"       //180
		"zpos"			"7"
		"wide"			"16"
		"tall"			"16"
		"visible"		"1"		//1
		"enabled"		"1"
		"scaleImage"	"1"	
		"image"			"../signs/death_wheel_whammy"
		"fgcolor"		"TanDark"
	}

	"PlayerStatus_SoldierOffenseBuff"
	{
		"ControlName"	"ImagePanel"
		"fieldName"		"PlayerStatus_SoldierOffenseBuff"
		"xpos"			"85"
		"ypos"			"110"
		"zpos"			"7"
		"wide"			"24"
		"tall"			"24"
		"visible"		"1"
		"enabled"		"1"
		"scaleImage"	"1"	
		"image"			"../HUD/defense_buff_bullet_blue"
		"fgcolor"		"TanDark"
	}

	"PlayerStatus_SoldierDefenseBuff"
	{
		"ControlName"	"ImagePanel"
		"fieldName"		"PlayerStatus_SoldierDefenseBuff"
		"xpos"			"85"
		"ypos"			"110"
		"zpos"			"7"
		"wide"			"24"
		"tall"			"24"
		"visible"		"1"
		"enabled"		"1"
		"scaleImage"	"1"	
		"image"			"../HUD/defense_buff_bullet_blue"
		"fgcolor"		"TanDark"
	}

	"PlayerStatus_SoldierHealOnHitBuff"
	{
		"ControlName"	"ImagePanel"
		"fieldName"		"PlayerStatus_SoldierHealOnHitBuff"
		"xpos"			"85"
		"ypos"			"110"
		"zpos"			"7"
		"wide"			"24"
		"tall"			"24"
		"visible"		"1"
		"enabled"		"1"
		"scaleImage"	"1"	
		"image"			"../HUD/defense_buff_bullet_blue"
		"fgcolor"		"TanDark"
	}
	"PlayerStatus_SpyMarked"
	{
		"ControlName"	"ImagePanel"
		"fieldName"		"PlayerStatus_SpyMarked"
		"xpos"			"85"
		"ypos"			"115"
		"zpos"			"7"
		"wide"			"31"
		"tall"			"31"
		"visible"		"0"
		"enabled"		"1"
		"scaleImage"	"1"	
		"image"			""
		"fgcolor"		"TanDark"
	}	
	"PlayerStatus_Parachute"
	{
		"ControlName"	"ImagePanel"
		"fieldName"		"PlayerStatus_Parachute"
		"xpos"			"85"
		"ypos"			"110"
		"zpos"			"7"
		"wide"			"24"
		"tall"			"24"
		"visible"		"0"
		"enabled"		"1"
		"scaleImage"	"1"	
		"image"			""
		"fgcolor"		"TanDark"
	}
	
	"PlayerStatus_RuneStrength"
	{
		"ControlName"	"ImagePanel"
		"fieldName"		"PlayerStatus_RuneStrength"
		"xpos"			"85"
		"ypos"			"110"
		"zpos"			"7"
		"wide"			"31"
		"tall"			"31"
		"visible"		"1"
		"enabled"		"1"
		"scaleImage"	"1"	
		"image"			"../Effects/powerup_strength_hud"
		"fgcolor"		"TanDark"
	}
	"PlayerStatus_RuneHaste"
	{
		"ControlName"	"ImagePanel"
		"fieldName"		"PlayerStatus_RuneHaste"
		"xpos"			"85"
		"ypos"			"110"
		"zpos"			"7"
		"wide"			"31"
		"tall"			"31"
		"visible"		"1"
		"enabled"		"1"
		"scaleImage"	"1"	
		"image"			"../Effects/powerup_haste_hud"
		"fgcolor"		"TanDark"
	}
	"PlayerStatus_RuneRegen"
	{
		"ControlName"	"ImagePanel"
		"fieldName"		"PlayerStatus_RuneRegen"
		"xpos"			"85"
		"ypos"			"110"
		"zpos"			"7"
		"wide"			"31"
		"tall"			"31"
		"visible"		"1"
		"enabled"		"1"
		"scaleImage"	"1"	
		"image"			"../Effects/powerup_regen_hud"
		"fgcolor"		"TanDark"
	}
	"PlayerStatus_RuneResist"
	{
		"ControlName"	"ImagePanel"
		"fieldName"		"PlayerStatus_RuneResist"
		"xpos"			"85"
		"ypos"			"110"
		"zpos"			"7"
		"wide"			"31"
		"tall"			"31"
		"visible"		"1"
		"enabled"		"1"
		"scaleImage"	"1"	
		"image"			"../Effects/powerup_resist_hud"
		"fgcolor"		"TanDark"
	}
	"PlayerStatus_RuneVampire"
	{
		"ControlName"	"ImagePanel"
		"fieldName"		"PlayerStatus_RuneVampire"
		"xpos"			"85"
		"ypos"			"110"
		"zpos"			"7"
		"wide"			"31"
		"tall"			"31"
		"visible"		"1"
		"enabled"		"1"
		"scaleImage"	"1"	
		"image"			"../Effects/powerup_vampire_hud"
		"fgcolor"		"TanDark"
	}
	"PlayerStatus_RuneReflect"
	{
		"ControlName"	"ImagePanel"
		"fieldName"		"PlayerStatus_RuneReflect"
		"xpos"			"85"
		"ypos"			"110"
		"zpos"			"7"
		"wide"			"31"
		"tall"			"31"
		"visible"		"1"
		"enabled"		"1"
		"scaleImage"	"1"	
		"image"			"../Effects/powerup_reflect_hud"
		"fgcolor"		"TanDark"
	}
	"PlayerStatus_RunePrecision"
	{
		"ControlName"	"ImagePanel"
		"fieldName"		"PlayerStatus_RunePrecision"
		"xpos"			"85"
		"ypos"			"110"
		"zpos"			"7"
		"wide"			"31"
		"tall"			"31"
		"visible"		"1"
		"enabled"		"1"
		"scaleImage"	"1"	
		"image"			"../Effects/powerup_precision_hud"
		"fgcolor"		"TanDark"
	}
	"PlayerStatus_RuneAgility"
	{
		"ControlName"	"ImagePanel"
		"fieldName"		"PlayerStatus_RuneAgility"
		"xpos"			"85"
		"ypos"			"110"
		"zpos"			"7"
		"wide"			"31"
		"tall"			"31"
		"visible"		"1"
		"enabled"		"1"
		"scaleImage"	"1"	
		"image"			"../Effects/powerup_agility_hud"
		"fgcolor"		"TanDark"
	}
	"PlayerStatus_RuneKnockout"
	{
		"ControlName"	"ImagePanel"
		"fieldName"		"PlayerStatus_RuneKnockout"
		"xpos"			"85"
		"ypos"			"110"
		"zpos"			"7"
		"wide"			"31"
		"tall"			"31"
		"visible"		"1"
		"enabled"		"1"
		"scaleImage"	"1"	
		"image"			"../Effects/powerup_knockout_hud"
		"fgcolor"		"TanDark"
	}
	"PlayerStatus_RuneKing"
	{
		"ControlName"	"ImagePanel"
		"fieldName"		"PlayerStatus_RuneKing"
		"xpos"			"85"
		"ypos"			"110"
		"zpos"			"7"
		"wide"			"31"
		"tall"			"31"
		"visible"		"1"
		"enabled"		"1"
		"scaleImage"	"1"	
		"image"			"../Effects/powerup_king_hud"
		"fgcolor"		"TanDark"
	}
	"PlayerStatus_RunePlague"
	{
		"ControlName"	"ImagePanel"
		"fieldName"		"PlayerStatus_RunePlague"
		"xpos"			"85"
		"ypos"			"110"
		"zpos"			"7"
		"wide"			"31"
		"tall"			"31"
		"visible"		"1"
		"enabled"		"1"
		"scaleImage"	"1"	
		"image"			"../Effects/powerup_plague_hud"
		"fgcolor"		"TanDark"
	}
	"PlayerStatus_RuneSupernova"
	{
		"ControlName"	"ImagePanel"
		"fieldName"		"PlayerStatus_RuneSupernova"
		"xpos"			"85"
		"ypos"			"110"
		"zpos"			"7"
		"wide"			"31"
		"tall"			"31"
		"visible"		"1"
		"enabled"		"1"
		"scaleImage"	"1"	
		"image"			"../Effects/powerup_supernova_hud"
		"fgcolor"		"TanDark"
	}
	"PlayerStatusSlowed"
	{
		"ControlName"	"ImagePanel"
		"fieldName"		"PlayerStatusSlowed"
		"xpos"			"85"
		"ypos"			"110"
		"zpos"			"7"
		"wide"			"24"
		"tall"			"24"
		"visible"		"1"
		"enabled"		"1"
		"scaleImage"	"1"	
		"image"			"../vgui/slowed"
		"fgcolor"		"TanDark"
	}	
}

