"Resource/UI/MainMenuOverride.res"
{
	MainMenuOverride
	{
		"fieldName"		"MainMenuOverride"
		"visible"		"1"
		"enabled"		"1"
		"xpos"			"0"
		"ypos"			"0"
		"zpos"			"0"
		"wide"			"f0"
		"tall"			"480"
		
//		"bgcolor_override"	"0 0 0 240"
		
		"update_url"	"http://store.steampowered.com/news/?filter=updates&appids=440"
		"blog_url"		"http://www.teamfortress.com/"
		
		"button_x_offset"	"-285"
		"button_y"			"120"
		"button_y_delta"	"5"
		"button_kv"
		{
			"xpos"			"0"
			"ypos"			"150"
			"wide"			"250"
			"tall"			"26"
			"visible"		"1"

			"SubButton"
			{
				"ControlName"	"CExImageButton"
				"fieldName"		"SubButton"
				"xpos"			"0"
				"ypos"			"0"
				"wide"			"250"
				"tall"			"26"
				"autoResize"	"0"
				"pinCorner"		"3"
				"visible"		"1"
				"enabled"		"1"
				"tabPosition"	"0"
				"textinsetx"	"0"
				"use_proportional_insets" "1"
				"font"			"Regular12"
				"textAlignment"	"west"
				"dulltext"		"0"
				"brighttext"	"0"
				"default"		"1"
				"sound_depressed"	"UI/buttonclick.wav"
				"sound_released"	"UI/buttonclickrelease.wav"
				
				"border_default"	"MainMenuButtonDefault"
				"border_armed"		"MainMenuButtonArmed"
				"paintbackground"	"2"
				
				"defaultFgColor_override" "malWhite"
				"armedFgColor_override"   "169 123 53 255"
				"depressedFgColor_override" "malPurple"
				
				"image_drawcolor"	"0 0 0 175"
				"image_armedcolor"	"0 0 0 255"
				"SubImage"
				{
					"ControlName"	"ImagePanel"
					"fieldName"		"SubImage"
					"xpos"			"0"
					"ypos"			"0"
					"zpos"			"0"
					"wide"			"0"
					"tall"			"0"
					"visible"		"0"
					"enabled"		"0"
					"scaleImage"	"0"
				}				
			}		
		}
		
		"SaxxySettings"
		{
			"xpos"			"0"
			"ypos"			"0"
			"zpos"			"-101"		
			"wide"			"f0"
			"tall"			"480"
			
			"autoResize"	"0"
			"pinCorner"		"0"
			"visible"		"1"
			"enabled"		"1"
			
			"flashbounds_x"	"50"
			"flashbounds_y"	"65"
			"flashbounds_w"	"250"
			"flashbounds_h"	"120"
			
			"flashstartsize_min"	"8"
			"flashstartsize_max"	"12"
			
			"flash_maxscale"		"4"
			
			"flash_lifelength_min"	".1"
			"flash_lifelength_max"	".2"
			
			"curtain_anim_duration"		"4.0"
			"curtain_open_time"		"2.8"
			"flash_start_time"		"4.0"
			
			"initial_freakout_duration"		"15.0"
			"clap_sound_duration"	"10.0"
			
			"CameraFlashSettings"
			{
				"visible"		"1"
				"enabled"		"1"
				"tileImage"		"0"
				"scaleImage"	"1"
				"zpos"			"9"
			}
		}
	}

	"mouseoveritempanel"
	{
		"ControlName"	"CItemModelPanel"
		"fieldName"		"mouseoveritempanel"
		"xpos"			"c-70"
		"ypos"			"270"
		"zpos"			"100"
		"wide"			"300"
		"tall"			"300"
		"visible"		"0"
		"bgcolor_override"		"0 0 0 0"
		"noitem_textcolor"		"117 107 94 255"
		"PaintBackgroundType"	"2"
		"paintborder"	"1"
		"border"		"MainMenuBGBorder"
		
		"text_ypos"			"20"
		"text_center"		"1"
		"model_hide"		"1"
		"resize_to_text"	"1"
		"padding_height"	"15"
		
		"attriblabel"
		{
			"font"			"ItemFontAttribLarge"
			"xpos"			"0"
			"ypos"			"30"
			"zpos"			"2"
			"wide"			"140"
			"tall"			"60"
			"autoResize"	"0"
			"pinCorner"		"0"
			"visible"		"1"
			"enabled"		"1"
			"labelText"		"%attriblist%"
			"textAlignment"	"center"
			"fgcolor"		"117 107 94 255"
			"centerwrap"	"1"
		}
	}	
	
	"Background"
	{
		"ControlName"	"ScalableImagePanel"
		"fieldName"		"Background"
		"xpos"			"cs-0.5"
		"ypos"			"0"
		"zpos"			"-200"
		"wide"			"o1.6"
		"tall"			"f0"
		"visible"		"0"
		"enabled"		"1"
		"image"			""
		"scaleImage"	"1"
		"proportionaltoparent"	"1"

		if_wider
		{
			"wide"			"f0"
			"tall"			"o0.628"
		}

		if_taller
		{
			"wide"			"o1.6"
			"tall"			"f0"
		}
		
		if_halloween_0
		{
			"image"		"../console/title_team_halloween2011_widescreen"
		}
		if_halloween_1
		{
			"image"		"../console/title_team_halloween2012_widescreen"
		}
		if_halloween_2
		{
			"image"		"../console/title_team_halloween2013_widescreen"
		}
		if_halloween_3
		{
			"image"		"../console/title_team_halloween2014_widescreen"
		}
		if_halloween_4
		{	
			"image"		"../console/title_team_halloween2015_widescreen"
		}
		if_halloween_5
		{	
			"image"		"../console/title_scream_fortress_2017_widescreen"
		}
		if_fullmoon
		{
			"image"		"../console/title_fullmoon_widescreen"
		}
//		if_christmas
//		{
//			"image"		"../console/title_team_smissmas_2017_widescreen"
//		}
//		if_jungle_inferno_0
//		{
//			"image"		"../console/title_team_jungle_inferno_2017_widescreen"
//		}
//		if_jungle_inferno_1
//		{
//			"image"		"../console/title_pyro_jungle_inferno_2017_widescreen"
//		}
	}
	
	"TFLogoImage"
	{
		"ControlName"	"ImagePanel"
		"fieldName"		"TFLogoImage"
		"xpos"			"9999"
		"ypos"			"9999"
		"zpos"			"-99"
		"wide"			"256"
		"tall"			"64"
		"visible"		"1"
		"enabled"		"1"
		"image"			"../logo/new_tf2_logo"
		"scaleImage"	"1"
	}	
	
	"TFCharacterImage"
	{
		// "ControlName"	"ImagePanel"
		"fieldName"		"TFCharacterImage"
		"xpos"			"9999"

		if_taller
		{
			if_operation
			{
				"xpos"		"9999"
			}
		}

		"ypos"			"9999"
		"zpos"			"-99"
		"wide"			"600"
		"tall"			"600"
		"visible"		"0"
		"enabled"		"0"
		"scaleImage"	"1"
	}

	"TooltipPanel"
	{
		"ControlName"	"EditablePanel"
		"fieldName"		"TooltipPanel"
		"xpos"			"0"
		"ypos"			"0"
		"zpos"			"10000"
		"wide"			"150"
		"tall"			"16"
		"visible"		"0"
		"PaintBackgroundType"	"0"
		"border"		"malPanelBorder"
		"bgcolor_override"	"malDarkerGrey"
		
		"TipSubLabel"
		{
			"ControlName"	"CExLabel"
			"fieldName"		"TipSubLabel"
			"font"			"Regular10"
			"labelText"		"%tipsubtext%"
			"textAlignment"	"center"
			"xpos"			"20"
			"ypos"			"30"
			"zpos"			"2"
			"wide"			"250"
			"tall"			"16"
			"autoResize"	"0"
			"pinCorner"		"0"
			"visible"		"1"
			"enabled"		"1"
			"fgcolor_override"	"117 107 94 255"
			"wrap"			"1"
		}
		
		"TipLabel"
		{
			"ControlName"	"CExLabel"
			"fieldName"		"TipLabel"
			"font"			"Regular12"
			"labelText"		"%tiptext%"
			"textAlignment"	"center"
			"xpos"			"20"
			"ypos"			"5"
			"zpos"			"2"
			"wide"			"140"
			"tall"			"10"
			"autoResize"	"0"
			"pinCorner"		"0"
			"visible"		"1"
			"enabled"		"1"
			"fgcolor_override"	"malWhite"
			"auto_wide_tocontents" "1"
		}
	}	
	
	"MOTD_ShowButtonPanel"
	{
		"ControlName"	"EditablePanel"
		"fieldName"		"MOTD_ShowButtonPanel"
		"xpos"			"0"
		"ypos"			"0"
		"zpos"			"6"
		"wide"			"20"
		"tall"			"20"
		"autoResize"	"0"
		"pinCorner"		"3"
		"visible"		"1"
		"enabled"		"1"
		"bgcolor_override"	"Blank"

		"pin_to_sibling"	"QuestLogButtonNew"
		"pin_corner_to_sibling"	"PIN_TOPRIGHT"
		"pin_to_sibling_corner"	"PIN_TOPLEFT"
		
		"MOTD_ShowButtonPanel_SB"
		{
			"ControlName"	"CExImageButton"
			"fieldName"		"MOTD_ShowButtonPanel_SB"
			"xpos"			"0"
			"ypos"			"0"
			"zpos"			"1"
			"wide"			"20"
			"tall"			"20"
			"autoResize"	"0"
			"pinCorner"		"3"
			"visible"		"1"
			"enabled"		"1"
			"tabPosition"	"0"
			"labelText"		""
			"font"			""
			"textAlignment"	"center"
			"dulltext"		"0"
			"brighttext"	"0"
			"default"		"1"
			
			"actionsignallevel" "2"
			"Command"		"motd_show"
			"navActivate"	"<QuickplayButton"		// after selecting this, nav to this sibling
			
			"sound_depressed"	"UI/buttonclick.wav"
			"sound_released"	"UI/buttonclickrelease.wav"
			"paintbackground" "0"
			
			"image_drawcolor"	"malWhite"
			"image_armedcolor"	"0 191 255 255"
			"SubImage"
			{
				"ControlName"	"ImagePanel"
				"fieldName"		"SubImage"
				"xpos"			"cs-0.5"
				"ypos"			"cs-0.5"
				"zpos"			"1"
				"wide"			"14"
				"tall"			"14"
				"visible"		"1"
				"enabled"		"1"
				"scaleImage"	"1"
				"image"			"replay/thumbnails/buttons/motd"
				"proportionaltoparent"	"1"
			}	
		}
	}
	
	"MOTD_Panel"
	{
		"ControlName"	"EditablePanel"
		"fieldName"		"MOTD_Panel"
		"xpos"			"r385"
		"ypos"			"64"
		"zpos"			"1"
		"wide"			"300"
		"tall"			"350"
		"visible"		"0"
		"PaintBackgroundType"	"0"
		"paintbackground"	"1"
		"border"		"malPanelBorder"
		"bgcolor_override"	"malDarkGrey"
		
		"MOTD_HeaderContainer"
		{
			"ControlName"	"EditablePanel"
			"fieldName"		"MOTD_HeaderContainer"
			"xpos"			"0"
			"ypos"			"0"
			"wide"			"300"
			"tall"			"22"
			"visible"		"1"
			
			"MOTD_HeaderLabel"
			{
				"ControlName"	"CExLabel"
				"fieldName"		"MOTD_HeaderLabel"
				"font"			"aBold16"
				"textAlignment"	"center"
				"labelText"		"%motdheader%"
				"xpos"			"0"
				"ypos"			"0"
				"wide"			"300"
				"tall"			"24"
				"autoResize"	"0"
				"pinCorner"		"0"
				"visible"		"1"
				"enabled"		"1"
				"PaintBackgroundType" "0"
				"fgcolor_override"	"malWhite"
				"bgcolor_override"	"141 178 61 255"
			}
		}
		
		"MOTD_CloseButton"
		{
			"ControlName"	"CExImageButton"
			"fieldName"		"MOTD_CloseButton"
			"xpos"			"282"
			"ypos"			"4"
			"zpos"			"10"
			"wide"			"14"
			"tall"			"14"
			"autoResize"	"0"
			"pinCorner"		"0"
			"visible"		"1"
			"enabled"		"1"
			"tabPosition"	"0"
			"labeltext"		""
			"font"			""
			"textAlignment"	"center"
			"dulltext"		"0"
			"brighttext"	"0"
			"default"		"0"
			"actionsignallevel"	"2"

			"navDown"			"MOTD_URLButton"
			"navActivate"		"<QuickplayButton"

			"sound_depressed"	"UI/buttonclick.wav"
			"sound_released"	"UI/buttonclickrelease.wav"
			"Command"		"motd_hide"
			
			"paintbackground"	"0"
			
			//"defaultFgColor_override" "235 226 202 255"
			//"armedFgColor_override" "46 43 42 255"
			"defaultFgColor_override" "Blank"
			"armedFgColor_override" "Blank"
			"depressedFgColor_override" "Blank"
			
			"image_drawcolor"	"malWhite"
			"image_armedcolor"	"255 0 0 255"
			"SubImage"
			{
				"ControlName"	"ImagePanel"
				"fieldName"		"SubImage"
				"xpos"			"cs-0.5"
				"ypos"			"cs-0.5"
				"zpos"			"1"
				"wide"			"9"
				"tall"			"9"
				"visible"		"1"
				"enabled"		"1"
				"image"			"replay/thumbnails/buttons/x"
				"scaleImage"	"1"
				"proportionaltoparent"	"1"
			}
		}	

		"MOTD_HeaderIcon"
		{
			"ControlName"	"ImagePanel"
			"fieldName"		"MOTD_HeaderIcon"
			"xpos"			"265"
			"ypos"			"25"
			"zpos"			"100"
			"wide"			"25"
			"tall"			"25"
			"visible"		"0"
			"enabled"		"1"
			"image"			"class_icons/filter_all_motd"
			"scaleImage"	"1"
		}
			
		"MOTD_TitleLabel"
		{
			"ControlName"	"CExLabel"
			"fieldName"		"MOTD_TitleLabel"
			"font"			"Regular14"
			"labelText"		"%motdtitle%"
			"textAlignment"	"west"
			"xpos"			"10"
			"ypos"			"25"
			"wide"			"250"
			"tall"			"15"
			"autoResize"	"0"
			"pinCorner"		"0"
			"visible"		"1"
			"enabled"		"1"
			"fgcolor_override"	"malWhite"
			"wrap"			"1"
		}
		
		"MOTD_Label"
		{
			"ControlName"	"CExLabel"
			"fieldName"		"MOTD_Label"
			"font"			"Regular12"
			"labelText"		"%motddate%"
			"textAlignment"	"north-west"
			"xpos"			"10"
			"ypos"			"38"
			"wide"			"300"
			"tall"			"15"
			"autoResize"	"0"
			"pinCorner"		"0"
			"visible"		"1"
			"enabled"		"1"
			"fgcolor_override"	"malWhite"
		}
		
		"MOTD_TitleImageBg"
		{
			"ControlName"	"ImagePanel"
			"fieldName"		"MOTD_TitleImageBg"
			"xpos"			"cs-0.5"
			"ypos"			"55"
			"zpos"			"99"
			"wide"			"250"
			"tall"			"150"
			"visible"		"1"
			"enabled"		"1"
			"image"			"item_bg"
			"scaleImage"	"1"
			"proportionaltoparent" "1"
		}
		
		"MOTD_TitleImageContainer"
		{
			"ControlName"	"EditablePanel"
			"fieldName"		"MOTD_TitleImageContainer"
			"xpos"			"cs-0.5"
			"ypos"			"55"
			"zpos"			"100"
			"wide"			"250"
			"tall"			"150"
			"visible"		"1"
			"proportionaltoparent" "1"
			
			"MOTD_TitleImage"
			{
				"ControlName"	"ImagePanel"
				"fieldName"		"MOTD_TitleImage"
				"xpos"			"0"
				"ypos"			"0"
				"zpos"			"100"
				"wide"			"250"
				"tall"			"250"
				"visible"		"1"
				"enabled"		"1"
				"image"			"class_icons/filter_all"
				"scaleImage"	"0"
			}
		}
			
		"MOTD_TextScroller"
		{
			"ControlName"	"ScrollableEditablePanel"
			"fieldName"		"MOTD_TextScroller"
			"xpos"			"20"
			"ypos"			"220"
			"wide"			"280"
			"tall"			"110"
			"PaintBackgroundType"	"2"
			"fgcolor_override"	"117 107 94 255"
			
			"MOTD_TextPanel"
			{
				"ControlName"	"EditablePanel"
				"fieldName"		"MOTD_TextPanel"
				"xpos"			"0"
				"ypos"			"0"
				"wide"			"250"
				"tall"			"300"
				"visible"		"1"
				"PaintBackgroundType"	"2"
			
				"MOTD_TextLabel"
				{
					"ControlName"	"CExLabel"
					"fieldName"		"MOTD_TextLabel"
					"font"			"Regular12"
					"labelText"		"%motdtext%"
					"textAlignment"	"north-west"
					"xpos"			"0"
					"ypos"			"0"
					"wide"			"250"
					"tall"			"300"
					"autoResize"	"0"
					"pinCorner"		"0"
					"visible"		"1"
					"enabled"		"1"
					"fgcolor_override"	"malWhite"
					"wrap"			"1"
				}
			}
		}
		
		"MOTD_URLButton"
		{
			"ControlName"	"CExButton"
			"fieldName"		"MOTD_URLButton"
			"xpos"			"75"
			"ypos"			"rs1.4"
			"wide"			"150"
			"tall"			"15"
			"autoResize"	"0"
			"pinCorner"		"3"
			"visible"		"1"
			"enabled"		"1"
			"tabPosition"	"0"
			"labelText"		"#MMenu_MOTD_URL"
			"textinsetx"	"20"
			"use_proportional_insets" "1"
			"font"			"HudFontSmallestBold"
			"textAlignment"	"center"
			"dulltext"		"0"
			"brighttext"	"0"
			"default"		"1"
			"command"		"motd_viewurl"
			"proportionaltoparent" "1"
			"actionsignallevel"	"2"


			"navUp"			"MOTD_CloseButton"
			"navLeft"		"MOTD_PrevButton"
			"navRight"		"MOTD_NextButton"

			"sound_depressed"	"UI/buttonclick.wav"
			"sound_released"	"UI/buttonclickrelease.wav"
			
			"defaultFgColor_override" "malWhite"
			"defaultBgColor_override" "malBlack"
			"armedFgColor_override" "malWhite"
			"depressedFgColor_override" "malWhite"
		}	
		
		"MOTD_PrevButton"
		{
			"ControlName"	"CExImageButton"
			"fieldName"		"MOTD_PrevButton"
			"xpos"			"12"
			"ypos"			"336"
			"zpos"			"1"
			"wide"			"20"
			"tall"			"20"
			"autoResize"	"0"
			"pinCorner"		"3"
			"visible"		"0"
			"enabled"		"1"
			"tabPosition"	"0"
			"labelText"		""
			"font"			"Regular12"
			"textAlignment"	"center"
			"dulltext"		"0"
			"brighttext"	"0"
			"default"		"1"
			"Command"		"motd_prev"
			"actionsignallevel"	"2"

			"navUp"			"MOTD_CloseButton"
			"navRight"		"MOTD_URLButton"

			"sound_depressed"	"UI/buttonclick.wav"
			"sound_released"	"UI/buttonclickrelease.wav"
			"paintbackground" "0"
			
			"image_drawcolor"	"235 226 202 255"
			"image_armedcolor"	"malWhite"
			"SubImage"
			{
				"ControlName"	"ImagePanel"
				"fieldName"		"SubImage"
				"xpos"			"0"
				"ypos"			"0"
				"zpos"			"1"
				"wide"			"20"
				"tall"			"20"
				"visible"		"1"
				"enabled"		"1"
				"image"			"blog_back"
				"scaleImage"	"1"
			}
		}		
		
		"MOTD_NextButton"
		{
			"ControlName"	"CExImageButton"
			"fieldName"		"MOTD_NextButton"
			"xpos"			"267"
			"ypos"			"336"
			"zpos"			"1"
			"wide"			"20"
			"tall"			"20"
			"autoResize"	"0"
			"pinCorner"		"3"
			"visible"		"0"
			"enabled"		"1"
			"tabPosition"	"0"
			"labelText"		""
			"font"			"Regular12"
			"textAlignment"	"center"
			"dulltext"		"0"
			"brighttext"	"0"
			"default"		"1"
			"Command"		"motd_next"
			"actionsignallevel"	"2"

			"navUp"			"MOTD_CloseButton"
			"navLeft"		"MOTD_URLButton"

			"sound_depressed"	"UI/buttonclick.wav"
			"sound_released"	"UI/buttonclickrelease.wav"
			"paintbackground" "0"
			
			"image_drawcolor"	"235 226 202 255"
			"image_armedcolor"	"malWhite"
			"SubImage"
			{
				"ControlName"	"ImagePanel"
				"fieldName"		"SubImage"
				"xpos"			"0"
				"ypos"			"0"
				"zpos"			"1"
				"wide"			"20"
				"tall"			"20"
				"visible"		"1"
				"enabled"		"1"
				"image"			"blog_forward"
				"scaleImage"	"1"
			}
		}
	}	
	
	"Notifications_ShowButtonPanel"
	{
		"ControlName"	"EditablePanel"
		"fieldName"		"Notifications_ShowButtonPanel"
		"xpos"			"170"
		"ypos"			"69"
		"zpos"			"1"
		"wide"			"25"
		"tall"			"20"
		"autoResize"	"0"
		"pinCorner"		"3"
		"visible"		"1"
		"enabled"		"1"
		"bgcolor_override"	"HudBlack"

		"SubImage"
		{
			"ControlName"	"CExImageButton"
			"fieldName"		"Notifications_ShowButtonPanel_SB"
			"xpos"			"0"
			"ypos"			"0"
			"zpos"			"1"
			"wide"			"25"
			"tall"			"20"
			"autoResize"	"0"
			"pinCorner"		"3"
			"visible"		"1"
			"enabled"		"1"
			"tabPosition"	"0"
			"labelText"		""
			"font"			""
			"textAlignment"	"center"
			"dulltext"		"0"
			"brighttext"	"0"
			"default"		"1"
			"Command"		"noti_show"
			"sound_depressed"	"UI/buttonclick.wav"
			"sound_released"	"UI/buttonclickrelease.wav"
			"paintbackground" "0"
			
			"defaultFgColor_override" 	"malWhite"
			"armedFgColor_override"   	"0 191 255 255"
			
			"image_drawcolor"	"malWhite"
			"image_armedcolor"	"0 191 255 255"
			"SubImage"
			{
				"ControlName"	"ImagePanel"
				"fieldName"		"SubImage"
				"xpos"			"cs-0.7"
				"ypos"			"cs-0.5"
				"zpos"			"1"
				"wide"			"14"
				"tall"			"14"
				"visible"		"1"
				"enabled"		"1"
				"scaleImage"	"1"
				"image"			"replay/thumbnails/buttons/alert"
				"proportionaltoparent"	"1"
			}
		}				
		
		"Notifications_CountLabel"
		{
			"ControlName"	"CExLabel"
			"fieldName"		"Notifications_CountLabel"
			"font"			"Regular10"
			"labelText"		"%noticount%"
			"textAlignment"	"center"
			"xpos"			"rs1"
			"ypos"			"-2"
			"zpos"			"0"
			"wide"			"14"
			"tall"			"14"
			"autoResize"	"0"
			"pinCorner"		"0"
			"visible"		"1"
			"enabled"		"1"
			"fgcolor_override"	"malWhite"
			"proportionaltoparent"	"1"
		}
	
		"Notifications_ShowButtonPanel_SB"
		{
			"ControlName"	"CExImageButton"
			"fieldName"		"Notifications_ShowButtonPanel_SB"
			"xpos"			"0"
			"ypos"			"0"
			"zpos"			"1"
			"wide"			"25"
			"tall"			"20"
			"autoResize"	"0"
			"pinCorner"		"3"
			"visible"		"1"
			"enabled"		"1"
			"tabPosition"	"0"
			"labelText"		""
			"font"			""
			"textAlignment"	"center"
			"dulltext"		"0"
			"brighttext"	"0"
			"default"		"1"
			"actionsignallevel" "2"
			
			"Command"		"noti_show"
			"navActivate"	"<QuickplayButton"
			
			"sound_depressed"	"UI/buttonclick.wav"
			"sound_released"	"UI/buttonclickrelease.wav"
			"paintbackground" "0"
			
			"defaultFgColor_override" 	"255 255 0 255"
			"armedFgColor_override"   	"0 191 255 255"
			
			"image_drawcolor"	"255 255 0 255"
			"image_armedcolor"	"0 191 255 255"
			"SubImage"
			{
				"ControlName"	"ImagePanel"
				"fieldName"		"SubImage"
				"xpos"			"cs-0.7"
				"ypos"			"cs-0.5"
				"zpos"			"1"
				"wide"			"14"
				"tall"			"14"
				"visible"		"1"
				"enabled"		"1"
				"scaleImage"	"1"
				"image"			"replay/thumbnails/buttons/alert"
				"proportionaltoparent"	"1"
			}
		}
	}

	"Notifications_Panel"
	{
		"ControlName"	"EditablePanel"
		"fieldName"		"Notifications_Panel"
		"xpos"			"200"
		"ypos"			"64"
		"zpos"			"1"
		"wide"			"210"
		"tall"			"80"
		"visible"		"0"
		"PaintBackgroundType"	"2"
		"paintbackground"	"1"
		"border"		"malPanelBorder"
		"bgcolor_override"	"HudBlack"
		
		"Notifications_CloseButton"
		{
			"ControlName"	"CExImageButton"
			"fieldName"		"Notifications_CloseButton"
			"xpos"			"186"
			"ypos"			"6"
			"zpos"			"10"
			"wide"			"14"
			"tall"			"14"
			"autoResize"	"0"
			"pinCorner"		"0"
			"visible"		"1"
			"enabled"		"1"
			"tabPosition"	"0"
			"labeltext"		""
			"font"			"Regular12"
			"textAlignment"	"center"
			"dulltext"		"0"
			"brighttext"	"0"
			"default"		"0"
			"actionsignallevel"	"2"

			"Command"		"noti_hide"
			"navActivate"	"<QuickplayButton"

			"sound_depressed"	"UI/buttonclick.wav"
			"sound_released"	"UI/buttonclickrelease.wav"
			
			"paintbackground"	"0"
			
			"defaultFgColor_override" "46 43 42 255"
			"armedFgColor_override" "235 226 202 255"
			"depressedFgColor_override" "46 43 42 255"
			
			"image_drawcolor"	"malWhite"
			"image_armedcolor"	"255 0 0 255"
			"SubImage"
			{
				"ControlName"	"ImagePanel"
				"fieldName"		"SubImage"
				"xpos"			"cs-0.5"
				"ypos"			"cs-0.5"
				"zpos"			"1"
				"wide"			"9"
				"tall"			"9"
				"visible"		"1"
				"enabled"		"1"
				"image"			"replay/thumbnails/buttons/x"
				"scaleImage"	"1"
				"proportionaltoparent"	"1"
			}				
		}		
	
		"Notifications_TitleLabel"
		{
			"ControlName"	"CExLabel"
			"fieldName"		"Notifications_TitleLabel"
			"font"			"Regular12"
			"labelText"		"%notititle%"
			"textAlignment"	"north-west"
			"xpos"			"12"
			"ypos"			"7"
			"wide"			"250"
			"tall"			"20"
			"autoResize"	"0"
			"pinCorner"		"0"
			"visible"		"1"
			"enabled"		"1"
			"fgcolor_override"	"malWhite"
			"wrap"			"1"
		}
		
		"Notifications_Scroller"
		{
			"ControlName"	"ScrollableEditablePanel"
			"fieldName"		"Notifications_Scroller"
			"xpos"			"8"
			"ypos"			"25"
			"wide"			"210"
			"tall"			"135"
			"PaintBackgroundType"	"2"
			"fgcolor_override"	"117 107 94 255"
			
			"Notifications_Control"
			{
				"ControlName"	"CMainMenuNotificationsControl"
				"fieldName"		"Notifications_Control"
				"xpos"			"0"
				"ypos"			"0"
				"wide"			"220"
				"tall"			"135"
				"visible"		"1"
			}
		}
	}

	"QuestLogButtonNew"
	{
		"ControlName"	"EditablePanel"
		"fieldName"		"QuestLogButtonNew"
		"xpos"			"65"
		"ypos"			"100"
		"zpos"			"1"
		"wide"			"20"
		"tall"			"20"
		"autoResize"	"0"
		"pinCorner"		"3"
		"visible"		"1"
		"enabled"		"1"
		"tabPosition"	"0"
		"bgcolor_override"	"Blank"
		
		"navUp"			"Notifications_Panel"
		"navLeft"		"SettingsButton"

		"SubButton"
		{
			"ControlName"	"CExImageButton"
			"fieldName"		"SubButton"
			"xpos"			"0"
			"ypos"			"0"
			"wide"			"20"
			"tall"			"20"
			"autoResize"	"0"
			"pinCorner"		"3"
			"visible"		"1"
			"enabled"		"1"
			"tabPosition"	"0"
			"textinsetx"	"0"
			"labelText"		""
			"font"			""
			"command"		"questlog"
			"textAlignment"	"center"
			"dulltext"		"0"
			"brighttext"	"0"
			"default"		"1"
			"sound_depressed"	"UI/buttonclick.wav"
			"sound_released"	"vo/null.mp3"
			"actionsignallevel" "2"
			"proportionaltoparent"	"1"
				
			"sound_depressed"	"UI/buttonclick.wav"
			"sound_released"	"UI/buttonclickrelease.wav"
			"paintbackground"	"0"
			"paintborder"		"0"
			
			"image_drawcolor"	"malWhite"
			"image_armedcolor"	"0 191 255 255"
			"SubImage"
			{
				"ControlName"	"ImagePanel"
				"fieldName"		"SubImage"
				"xpos"			"cs-0.5"
				"ypos"			"cs-0.5"
				"zpos"			"1"
				"wide"			"14"
				"tall"			"14"
				"visible"		"1"
				"enabled"		"1"
				"scaleImage"	"1"
				"image"			"replay/thumbnails/buttons/pda"
				
				"proportionaltoparent"	"1"
				"mouseinputenabled"	"0"
				"keyboardinputenabled" "0"
			}
		}
	}

	"WatchStreamButton"
	{
		"ControlName"	"EditablePanel"
		"fieldName"		"WatchStreamButton"
		"xpos"			"0"
		"ypos"			"0"
		"zpos"			"6"
		"wide"			"20"
		"tall"			"20"
		"autoResize"	"0"
		"pinCorner"		"3"
		"visible"		"1"
		"enabled"		"1"
		"tabPosition"	"0"
		"bgcolor_override"	"Blank"

		"pin_to_sibling"	"QuestLogButtonNew"
		"pin_corner_to_sibling"	"PIN_TOPLEFT"
		"pin_to_sibling_corner"	"PIN_TOPRIGHT"
		
		"navUp"			"Notifications_Panel"
		"navLeft"		"SettingsButton"

		"SubButton"
		{
			"ControlName"	"CExImageButton"
			"fieldName"		"SubButton"
			"xpos"			"0"
			"ypos"			"0"
			"wide"			"20"
			"tall"			"20"
			"autoResize"	"0"
			"pinCorner"		"3"
			"visible"		"1"
			"enabled"		"1"
			"tabPosition"	"0"
			"textinsetx"	"0"
			"labelText"		""
			"use_proportional_insets" "1"
			"font"			""
			"command"		"watch_stream"
			"textAlignment"	"center"
			"dulltext"		"0"
			"brighttext"	"0"
			"default"		"1"
			"sound_depressed"	"UI/buttonclick.wav"
			"sound_released"	"vo/null.mp3"
			"actionsignallevel" "2"
				
			"sound_depressed"	"UI/buttonclick.wav"
			"sound_released"	"UI/buttonclickrelease.wav"
			"paintbackground"	"0"
			"paintborder"		"0"
			
			"image_drawcolor"	"malWhite"
			"image_armedcolor"	"100 65 165 255"
			"SubImage"
			{
				"ControlName"	"ImagePanel"
				"fieldName"		"SubImage"
				"xpos"			"cs-0.5"
				"ypos"			"cs-0.5"
				"zpos"			"1"
				"wide"			"20"
				"tall"			"20"
				"visible"		"1"
				"enabled"		"1"
				"scaleImage"	"1"
				"image"			"replay/thumbnails/buttons/twitch"
				"proportionaltoparent"	"1"
			}		
		}
	}

	"StreamListPanel"
	{
		"ControlName"	"CTFStreamListPanel"
		"fieldName"		"StreamListPanel"
		"xpos"			"r385"
		"ypos"			"64"
		"zpos"			"1"
		"wide"			"300"
		"tall"			"350"
		"visible"		"0"
		"PaintBackgroundType"	"0"
		"paintbackground"	"1"
		"border"		"malPanelBorder"
		"bgcolor_override"	"malDarkGrey"

		"navDown"		"SettingsButton"		// when a sub element can't nav down it will pass through this
		"navLeft"		"WatchStreamButton"	// when a sub element can't nav left it will pass through this
	}

	"StoreHasNewItemsImage"
	{
		"ControlName"	"ImagePanel"
		"fieldName"		"StoreHasNewItemsImage"
		"xpos"			"0"
		"ypos"			"0"
		"zpos"			"0"
		"wide"			"0"
		"tall"			"0"
		"visible"		"0"
		"enabled"		"0"
		"image"			"../vgui/new"
		"scaleImage"	"0"
	}

	"ShowPromoaBoldsButton"
	{
		"ControlName"	"CExImageButton"
		"fieldName"		"ShowPromoaBoldsButton"
		"xpos"			"0"
		"ypos"			"0"
		"wide"			"0"
		"tall"			"0"
		"autoResize"	"0"
		"pinCorner"		"0"
		"visible"		"0"
		"enabled"		"0"
		"tabPosition"	"0"
		"font"			"HudFontSmallestBold"
		"labelText"		"#MMenu_ShowPromoaBolds"
		"textAlignment"	"center"
		"dulltext"		"0"
		"brighttext"	"0"
		"default"		"1"
		"sound_depressed"	"UI/buttonclick.wav"
		"sound_released"	"UI/buttonclickrelease.wav"
		"command"		"showpromoaBolds"
		
		"border_default"	"MainMenuButtonDefault"
		"border_armed"		"MainMenuButtonArmed"
		"paintbackground"	"0"
		
		"defaultFgColor_override" "46 43 42 255"
		"armedFgColor_override" "235 226 202 255"
		"depressedFgColor_override" "46 43 42 255"
	}
	
	"CompetitiveAccessInfoPanel"
	{
		"ControlName"	"CCompetitiveAccessInfoPanel"
		"fieldName"		"CompetitiveAccessInfoPanel"
		"xpos"			"cs-0.5"
		"ypos"			"cs-0.5"
		"zpos"			"1000"
		"wide"			"f0"
		"tall"			"f0"
		"visible"		"0"
	}

	"FriendsContainer"
	{
		"ControlName"	"EditablePanel"
		"fieldname"		"FriendsContainer"
		"xpos"			"r155"
		"ypos"			"cs-0.5"
		"zpos"			"-1"
		"wide"			"155"
		"tall"			"232"
		"visible"		"1"

		"border"		"NoBorder"
		"bgcolor_override"	"HudBlack"

		"TitleLabel"
		{
			"ControlName"	"CExLabel"
			"fieldName"		"TitleLabel"
			"font"			"Regular12"
			"labelText"		"Friends"
			"textAlignment"	"west"
			"xpos"			"12"
			"ypos"			"7"
			"wide"			"f0"
			"tall"			"14"
			"autoResize"	"0"
			"pinCorner"		"0"
			"visible"		"1"
			"enabled"		"1"
			"textinsetx"	"0"
			"fgcolor_override"	"malWhite"
		}

		"InnerShadow"
		{
			"ControlName"	"EditablePanel"
			"fieldname"		"InnerShadow"
			"xpos"			"cs-0.5"
			"ypos"			"rs1-10"
			"zpos"			"501"
			"wide"			"f20"
			"tall"			"110"
			"visible"		"0"	
			"PaintBackgroundType"	"0"
			"proportionaltoparent"	"1"
			"mouseinputenabled"	"0"

			"paintborder"	"1"
			"border"		"InnerShadowBorder"
		}

		"SteamFriendsList"
		{
			"ControlName"	"CSteamFriendsListPanel"
			"fieldname"		"SteamFriendsList"
			"xpos"			"cs-0.5"
			"ypos"			"rs1-10"
			"zpos"			"500"
			"wide"			"f20"
			"tall"			"198"
			"visible"		"1"
			"proportionaltoparent"	"1"

			"columns_count"	"1"
			"inset_x"		"10"
			"inset_y"		"5"
			"row_gap"		"4"
			"column_gap"	"20"
			"restrict_width"	"0"

			"friendpanel_kv"
			{
				"wide"		"110"
				"tall"		"20"
			}

			"ScrollBar"
			{
				"ControlName"	"ScrollBar"
				"FieldName"		"ScrollBar"
				"xpos"			"rs0.7-1"
				"ypos"			"0"
				"tall"			"f0"
				"wide"			"5" // This gets slammed from client schme.  GG.
				"zpos"			"1000"
				"nobuttons"		"1"
				"proportionaltoparent"	"1"

				"Slider"
				{
					"fgcolor_override"	"TanDark"
				}
		
				"UpButton"
				{
					"ControlName"	"Button"
					"FieldName"		"UpButton"
					"visible"		"0"
				}
		
				"DownButton"
				{
					"ControlName"	"Button"
					"FieldName"		"DownButton"
					"visible"		"0"
				}
			}
		}

		"BelowDarken"
		{
			"ControlName"	"EditablePanel"
			"fieldname"		"BelowDarken"
			"xpos"			"cs-0.5"
			"ypos"			"rs1-10"
			"zpos"			"499"
			"wide"			"f20"
			"tall"			"198"
			"visible"		"1"	
			"PaintBackgroundType"	"0"
			"proportionaltoparent"	"1"
			"mouseinputenabled"	"0"

			"bgcolor_override"	"0 0 0 100"
		}
	}

	//START OF MENU
	"MainMenuSideBG"
	{
		"ControlName"	"ImagePanel"
		"fieldName"		"MainMenuSideBG"
		"xpos"			"0"
		"ypos"			"0"
		"zpos"			"-98"
		"wide"			"170"
		"tall"			"480"
		"autoResize"	"0"
		"pinCorner"		"0"
		"visible"		"1"
		"enabled"		"1"
		"fillcolor"		"HudBlack"
	}	
	
	"malLabel"
	{
		"ControlName"	"CExButton"
		"fieldName"		"malLabel"
		"font"			"Heavy32"
		"labelText"		"MALHUD"
		"textAlignment"	"center"
		"xpos"			"0"
		"ypos"			"64"
		"wide"			"170"
		"tall"			"30"
		"autoResize"	"0"
		"pinCorner"		"0"
		"visible"		"1"
		"enabled"		"1"
		"command"		"engine play vo/heavy_battlecry05.mp3"
		"fgcolor_override"	"malWhite"
		
		"border_default"	"NoBorder"
		"border_armed"		"NoBorder"
		"paintbackground"	"0"
	}
	
	"VersionLabel"
	{
		"ControlName"	"CExLabel"
		"fieldName"		"VersionLabel"
		"font"			"Regular8"
		"labelText"		"2.0"
		"textAlignment"	"east"
		"xpos"			"r52"
		"ypos"			"r13"
		"wide"			"46"
		"tall"			"10"
		"autoResize"	"0"
		"pinCorner"		"0"
		"visible"		"1"
		"enabled"		"1"
		"fgcolor_override"	"242 242 242 5"
	}

	"RankModelPanel"
	{
		"ControlName"	"CPvPRankPanel"
		"fieldName"		"RankModelPanel"
		"xpos"			"0"
		"ypos"			"cs-0.5-85"

		"zpos"			"-51"
		"wide"			"170"
		"tall"			"1000"
		"visible"		"0"
		"proportionaltoparent"	"1"
		"mouseinputenabled"	"1"

		"matchgroup"	"MatchGroup_Casual_12v12"

		"show_progress"	"0"
	}

	"CycleRankTypeButton"
	{
		"ControlName"	"CExImageButton"
		"fieldName"		"CycleRankTypeButton"
		"xpos"			"0"
		"ypos"			"0"
		"wide"			"20"
		"tall"			"20"
		"autoResize"	"0"
		"pinCorner"		"3"
		"visible"		"1"
		"enabled"		"1"
		"tabPosition"	"0"
		"textinsetx"	"25"
		"labelText"		""
		"use_proportional_insets" "1"
		"font"			"HudFontSmallBold"
		"command"		"open_rank_type_menu"
		"textAlignment"	"west"
		"dulltext"		"0"
		"brighttext"	"0"
		"default"		"1"
		"sound_depressed"	"UI/buttonclick.wav"
		"sound_released"	"vo/null.mp3"
		"actionsignallevel" "1"
		"proportionaltoparent"	"1"
		
		"pin_to_sibling"	"WatchStreamButton"
		"pin_corner_to_sibling"	"PIN_TOPLEFT"
		"pin_to_sibling_corner"	"PIN_TOPRIGHT"
				
		"sound_depressed"	"UI/buttonclick.wav"
		"sound_released"	"UI/buttonclickrelease.wav"
		"border_default"	"NoBorder"
		"border_armed"		"NoBorder"
		"paintbackground"	"0"
		"image_drawcolor"	"malWhite"
		"image_armedcolor"	"0 191 255 255"

		"SubImage"
		{
			"ControlName"	"ImagePanel"
			"fieldName"		"SubImage"
			"xpos"			"cs-0.5"
			"ypos"			"cs-0.5"
			"zpos"			"1"
			"wide"			"14"
			"tall"			"14"
			"visible"		"1"
			"enabled"		"1"
			"scaleImage"	"1"
			"image"			"glyph_options"

			"proportionaltoparent"	"1"
			"mouseinputenabled"	"0"
			"keyboardinputenabled" "0"
		}		
	}

	"RankTooltipPanel"
	{
		"ControlName"	"ImagePanel"
		"fieldName"		"RankTooltipPanel"
		"xpos"			"58"
		"ypos"			"128"
		"zpos"			"-1"
		"wide"			"8"
		"tall"			"8"
		"visible"		"1"
		"proportionaltoparent"	"1"
		"mouseinputenabled"	"1"
		"image"			"info"
		"scaleImage"	"1"	
		"alpha"			"75"
	}

	"RankPanel"
	{
		"ControlName"	"CPvPRankPanel"
		"fieldName"		"RankPanel"
		"xpos"			"0"
		"ypos"			"185"
		"zpos"			"-52"
		"wide"			"170"
		"tall"			"100"
		"visible"		"0"
		"proportionaltoparent"	"1"
		"mouseinputenabled"	"0"

		"matchgroup"	"MatchGroup_Casual_12v12"

		"show_model"	"0"
		"show_type"		"1"
	}

	"NoGCMessage"
	{
		"ControlName"	"Label"
		"fieldName"		"NoGCMessage"
		"xpos"			"27"
		"ypos"			"135"
		"zpos"			"11"
		"wide"			"130"
		"tall"			"100"
		"visible"		"1"
		"proportionaltoparent"	"1"
		"mouseinputenabled"	"0"
		"wrap"			"1"
		"textinsetx"	"10"
		"textinsety"	"0"

		"font"			"Regular10"
		"fgcolor_override"	"LightRed"
		"labelText"		"#TF_MM_NoGC_Rank"
		"textAlignment"	"west"
		"use_proportional_insets"	"1"
	}

	"NoGCImage"
	{
		"ControlName"	"ImagePanel"
		"fieldName"		"NoGCImage"
		"xpos"			"9999"
		"ypos"			"9999"
		"zpos"			"11"
		"wide"			"50"
		"tall"			"50"
		"visible"		"0"
		"enabled"		"0"
		"image"			"gc_dc"
		"scaleImage"	"1"
		"proportionaltoparent" "1"
	}	

	"RankBorder"
	{
		"ControlName"	"EditablePanel"
		"fieldName"		"RankBorder"
		"xpos"			"9999"
		"ypos"			"9999"
		"zpos"			"-100"
		"wide"			"260"
		"tall"			"60"
		"visible"		"0"
		"PaintBackgroundType"	"2"
		"border"		"NoBorder"
		"proportionaltoparent"	"1"
	}	

	"CallVoteButton"	//IN-GAME BUTTON
	{
		"ControlName"	"EditablePanel"
		"fieldname"		"CallVoteButton"
		"xpos"			"82"
		"ypos"			"255"
		"zpos"			"12"
		"wide"			"14"
		"tall"			"14"
		"visible"		"1"

		"SubButton"
		{
			"ControlName"	"CExImageButton"
			"fieldName"		"SubButton"
			"xpos"			"0"
			"ypos"			"0"
			"wide"			"14"
			"tall"			"14"
			"autoResize"	"0"
			"pinCorner"		"3"
			"visible"		"1"
			"enabled"		"1"
			"tabPosition"	"0"
			"textinsetx"	"10"			
			"use_proportional_insets" "1"
			"font"			"Regular12"
			"textAlignment"	"west"
			"dulltext"		"0"
			"brighttext"	"0"
			"default"		"1"
			"sound_depressed"	"UI/buttonclick.wav"
			"sound_released"	"UI/buttonclickrelease.wav"
			"paintbackground"	"0"
			
			"defaultFgColor_override" "46 43 42 255"
			"armedFgColor_override" "46 43 42 255"
			"depressedFgColor_override" "46 43 42 255"
			
			"image_drawcolor"	"malWhite"
			"image_armedcolor"	"0 191 255 255"
			
			"SubImage"
			{
				"ControlName"	"ImagePanel"
				"fieldName"		"SubImage"
				"xpos"			"1"
				"ypos"			"1"
				"zpos"			"1"
				"wide"			"12"
				"tall"			"12"
				"visible"		"1"
				"enabled"		"1"
				"image"			"glyph_create"
				"scaleImage"	"1"
			}				
		}
	}
	
	"MutePlayersButton"	//IN-GAME BUTTON
	{
		"ControlName"	"EditablePanel"
		"fieldname"		"MutePlayersButton"
		"xpos"			"102"
		"ypos"			"255"
		"zpos"			"12"
		"wide"			"14"
		"tall"			"14"
		"visible"		"1"

		"SubButton"
		{
			"ControlName"	"CExImageButton"
			"fieldName"		"SubButton"
			"xpos"			"0"
			"ypos"			"0"
			"wide"			"14"
			"tall"			"14"
			"autoResize"	"0"
			"pinCorner"		"3"
			"visible"		"1"
			"enabled"		"1"
			"tabPosition"	"0"
			"textinsetx"	"10"			
			"use_proportional_insets" "1"
			"font"			"Regular12"
			"textAlignment"	"west"
			"dulltext"		"0"
			"brighttext"	"1"
			"labeltext"		""
			"default"		"1"
			"sound_depressed"	"UI/buttonclick.wav"
			"sound_released"	"UI/buttonclickrelease.wav"
			"paintbackground"	"0"
			
			"defaultFgColor_override" "46 43 42 255"
			"armedFgColor_override" "46 43 42 255"
			"depressedFgColor_override" "46 43 42 255"
			
			"image_drawcolor"	"malWhite"
			"image_armedcolor"	"0 191 255 255"
			
			"SubImage"
			{
				"ControlName"	"ImagePanel"
				"fieldName"		"SubImage"
				"xpos"			"1"
				"ypos"			"1"
				"zpos"			"1"
				"wide"			"12"
				"tall"			"12"
				"visible"		"1"
				"enabled"		"1"
				"image"			"glyph_create"
				"scaleImage"	"1"
			}				
		}
	}

	"ReportPlayerButton"	//IN-GAME BUTTON
	{
		"ControlName"	"EditablePanel"
		"fieldname"		"ReportPlayerButton"
		"xpos"			"122"
		"ypos"			"255"
		"zpos"			"12"
		"wide"			"14"
		"tall"			"14"
		"visible"		"0"

		"navLeft"		"ResumeGameButton"
		"navRight"		"CallVoteButton"
		"navDown"		"QuickplayChangeButton"
		"navToRelay"	"SubButton"

		"SubButton"
		{
			"ControlName"	"CExImageButton"
			"fieldName"		"SubButton"
			"xpos"			"0"
			"ypos"			"0"
			"wide"			"14"
			"tall"			"14"
			"autoResize"	"0"
			"pinCorner"		"3"
			"visible"		"1"
			"enabled"		"1"
			"tabPosition"	"0"
			"textinsetx"	"0"
			"labelText"		""
			"use_proportional_insets" "1"
			"font"			""
			"textAlignment"	"center"
			"dulltext"		"0"
			"brighttext"	"0"
			"default"		"1"
			"sound_depressed"	"UI/buttonclick.wav"
			"sound_released"	"UI/buttonclickrelease.wav"
			"paintbackground"	"0"
			
			"defaultFgColor_override" "46 43 42 255"
			"armedFgColor_override" "46 43 42 255"
			"depressedFgColor_override" "46 43 42 255"
			
			"image_drawcolor"	"malWhite"
			"image_armedcolor"	"0 191 255 255"
			
			"SubImage"
			{
				"ControlName"	"ImagePanel"
				"fieldName"		"SubImage"
				"xpos"			"1"
				"ypos"			"1"
				"zpos"			"1"
				"wide"			"13"
				"tall"			"13"
				"visible"		"1"
				"enabled"		"1"
				"image"			"replay/thumbnails/buttons/alert"
				"scaleImage"	"1"
			}				
		}
	}

	"CharacterSetupButton"
	{
		"ControlName"	"CExImageButton"
		"fieldName"		"CharacterSetupButton"
		"xpos"			"27"
		"ypos"			"255"
		"wide"			"55"
		"tall"			"14"
		"autoResize"	"0"
		"pinCorner"		"3"
		"visible"		"1"
		"enabled"		"1"
		"tabPosition"	"0"
		"textinsetx"	"10"
		"use_proportional_insets" "1"
		"font"			"Regular12"
		"textAlignment"	"west"
		"labelText"		"Items"
		"dulltext"		"0"
		"brighttext"	"0"
		"default"		"1"
		"command"		"engine open_charinfo"

		"sound_depressed"	"UI/buttonclick.wav"
		"sound_released"	"UI/buttonclickrelease.wav"
		
		"border_default"	"NoBorder"
		"border_armed"		"NoBorder"
		"paintbackground"	"0"
		
		"defaultFgColor_override" "malWhite"
		"armedFgColor_override"   "malPurple"
		"depressedFgColor_override" "malPurple"
	}
		
	"GeneralStoreButton"
	{
		"ControlName"	"CExImageButton"
		"fieldName"		"GeneralStoreButton"
		"xpos"			"27"
		"ypos"			"275"
		"wide"			"50"
		"tall"			"14"
		"autoResize"	"0"
		"pinCorner"		"3"
		"visible"		"1"
		"enabled"		"1"
		"tabPosition"	"0"
		"textinsetx"	"10"
		"use_proportional_insets" "1"
		"font"			"Regular12"
		"textAlignment"	"west"
		"labelText"		"Store"
		"dulltext"		"0"
		"brighttext"	"0"
		"default"		"1"
		"command"		"engine open_store"

		"sound_depressed"	"UI/buttonclick.wav"
		"sound_released"	"UI/buttonclickrelease.wav"
		
		"border_default"	"NoBorder"
		"border_armed"		"NoBorder"
		"paintbackground"	"0"
		
		"defaultFgColor_override" "malWhite"
		"armedFgColor_override"   "malPurple"
		"depressedFgColor_override" "malPurple"
	}
	
	"SettingsButtonNew"
	{
		"ControlName"	"CExImageButton"
		"fieldName"		"SettingsButtonNew"
		"xpos"			"27"
		"ypos"			"295"
		"zpos"			"11"
		"wide"			"65"
		"tall"			"14"
		"autoResize"	"0"
		"pinCorner"		"3"
		"visible"		"1"
		"enabled"		"1"
		"tabPosition"	"0"
		"labelText"		"Options"
		"font"			"Regular12"
		"textAlignment"	"west"
		"textinsetx"	"10"
		"use_proportional_insets" "1"
		"dulltext"		"0"
		"brighttext"	"0"
		"default"		"1"
		"Command"		"OpenOptionsDialog"

		"sound_depressed"	"UI/buttonclick.wav"
		"sound_released"	"UI/buttonclickrelease.wav"
		
		"border_default"	"NoBorder"
		"border_armed"		"NoBorder"
		"paintbackground"	"0"
		
		"defaultFgColor_override" "malWhite"
		"armedFgColor_override"   "malPurple"
		"depressedFgColor_override" "malPurple"
	}
	
	"TF2SettingsButtonNew"
	{
		"ControlName"	"CExImageButton"
		"fieldName"		"TF2SettingsButtonNew"
		"xpos"			"27"
		"ypos"			"315"
		"zpos"			"11"
		"wide"			"85"
		"tall"			"14"
		"autoResize"	"0"
		"pinCorner"		"3"
		"visible"		"1"
		"enabled"		"1"
		"tabPosition"	"0"
		"labelText"		"Adv. Options"
		"font"			"Regular12"
		"textAlignment"	"west"
		"textinsetx"	"10"
		"use_proportional_insets" "1"
		"dulltext"		"0"
		"brighttext"	"0"
		"default"		"1"
		"Command"		"opentf2options"

		"sound_depressed"	"UI/buttonclick.wav"
		"sound_released"	"UI/buttonclickrelease.wav"
		
		"border_default"	"NoBorder"
		"border_armed"		"NoBorder"
		"paintbackground"	"0"
		
		"defaultFgColor_override" "malWhite"
		"armedFgColor_override"   "malPurple"
		"depressedFgColor_override" "malPurple"
	}
		
	"ScoreboardButton"
	{
		"ControlName"	"CExImageButton"
		"fieldName"		"ScoreboardButton"
		"xpos"			"27"
		"ypos"			"335"
		"wide"			"85"
		"tall"			"14"
		"autoResize"	"0"
		"pinCorner"		"3"
		"visible"		"1"
		"enabled"		"1"
		"tabPosition"	"0"
		"textinsetx"	"10"
		"use_proportional_insets" "1"
		"labelText"		"Scoreboard"
		"font"			"Regular12"
		"textAlignment"	"west"
		"dulltext"		"0"
		"brighttext"	"0"
		"default"		"1"
		"command"		"engine toggle cl_hud_minmode"

		"sound_depressed"	"UI/buttonclick.wav"
		"sound_released"	"UI/buttonclickrelease.wav"
		
		"border_default"	"NoBorder"
		"border_armed"		"NoBorder"
		"paintbackground"	"0"
		
		"defaultFgColor_override" "malWhite"
		"armedFgColor_override"   "malPurple"
		"depressedFgColor_override" "malPurple"
	}

	"ConsoleButton"
	{
		"ControlName"	"CExImageButton"
		"fieldName"		"ConsoleButton"
		"xpos"			"27"
		"ypos"			"355"
		"zpos"			"11"
		"wide"			"65"
		"tall"			"14"
		"autoResize"	"0"
		"pinCorner"		"3"
		"visible"		"1"
		"enabled"		"1"
		"tabPosition"	"0"
		"labelText"		"Console"
		"font"			"Regular12"
		"textAlignment"	"west"
		"textinsetx"	"10"
		"use_proportional_insets" "1"
		"dulltext"		"0"
		"brighttext"	"0"
		"default"		"1"
		"Command"		"engine toggleconsole"

		"sound_depressed"	"UI/buttonclick.wav"
		"sound_released"	"UI/buttonclickrelease.wav"
		
		"border_default"	"NoBorder"
		"border_armed"		"NoBorder"
		"paintbackground"	"0"
		
		"defaultFgColor_override" "malWhite"
		"armedFgColor_override"   "malPurple"
		"depressedFgColor_override" "malPurple"
				
		"image_drawcolor"	"0 0 0 175"
		"image_armedcolor"	"0 0 0 255"
	}
	
	"DemoUIButton"
	{
		"ControlName"	"CExImageButton"
		"fieldName"		"DemoUIButton"
		"xpos"			"27"
		"ypos"			"375"
		"zpos"			"11"
		"wide"			"65"
		"tall"			"14"
		"autoResize"	"0"
		"pinCorner"		"3"
		"visible"		"1"
		"enabled"		"1"
		"tabPosition"	"0"
		"labelText"		"DemoUI"
		"font"			"Regular12"
		"textAlignment"	"west"
		"textinsetx"	"10"
		"use_proportional_insets" "1"
		"dulltext"		"0"
		"brighttext"	"0"
		"default"		"1"
		"Command"		"engine demoui"

		"sound_depressed"	"UI/buttonclick.wav"
		"sound_released"	"UI/buttonclickrelease.wav"
		
		"border_default"	"NoBorder"
		"border_armed"		"NoBorder"
		"paintbackground"	"0"
		
		"defaultFgColor_override" "malWhite"
		"armedFgColor_override"   "malPurple"
		"depressedFgColor_override" "malPurple"
	}
	
	"QuitButton"
	{
		"ControlName"	"CExImageButton"
		"fieldName"		"QuitButton"
		"xpos"			"27"
		"ypos"			"415"
		"zpos"			"11"
		"wide"			"45"
		"tall"			"14"
		"autoResize"	"0"
		"pinCorner"		"3"
		"visible"		"1"
		"enabled"		"1"
		"tabPosition"	"0"
		"labelText"		"Quit"
		"font"			"Regular12"
		"textAlignment"	"west"
		"textinsetx"	"10"
		"use_proportional_insets" "1"
		"dulltext"		"0"
		"brighttext"	"0"
		"default"		"1"
		"Command"		"engine replay_confirmquit"
		"sound_depressed"	"UI/buttonclick.wav"
		"sound_released"	"UI/buttonclickrelease.wav"
		
		"border_default"	"NoBorder"
		"border_armed"		"NoBorder"
		"paintbackground"	"0"
		
		"defaultFgColor_override" "malWhite"
		"armedFgColor_override"   "malPurple"
		"depressedFgColor_override" "malPurple"
				
		"image_drawcolor"	"0 0 0 175"
		"image_armedcolor"	"0 0 0 255"
		
		"SubImage"
		{
			"ControlName"	"ImagePanel"
			"fieldName"		"SubImage"
			"xpos"			"0"
			"ypos"			"0"
			"zpos"			"0"
			"wide"			"0"
			"tall"			"0"
			"visible"		"0"
			"enabled"		"0"
			"scaleImage"	"0"
			"image"			"glyph_quit"
		}				
	}
	
	"DisconnectButton"	//IN-GAME BUTTON
	{
		"ControlName"	"CExImageButton"
		"fieldName"		"DisconnectButton"
		"xpos"			"25"
		"ypos"			"405"
		"zpos"			"11"
		"wide"			"88"
		"tall"			"14"
		"autoResize"	"0"
		"pinCorner"		"3"
		"visible"		"1"
		"enabled"		"1"
		"tabPosition"	"0"
		"labelText"		"Disconnect"
		"font"			"Regular12"
		"textAlignment"	"west"
		"textinsetx"	"10"
		"use_proportional_insets" "1"
		"dulltext"		"0"
		"brighttext"	"0"
		"default"		"1"
		"Command"		"engine disconnect"
		"sound_depressed"	"UI/buttonclick.wav"
		"sound_released"	"UI/buttonclickrelease.wav"
		
		"border_default"	"NoBorder"
		"border_armed"		"NoBorder"
		"paintbackground"	"0"
		
		"defaultFgColor_override" "malWhite"
		"armedFgColor_override"   "malPurple"
		"depressedFgColor_override" "malPurple"
				
		"image_drawcolor"	"0 0 0 175"
		"image_armedcolor"	"0 0 0 255"
		
		"SubImage"
		{
			"ControlName"	"ImagePanel"
			"fieldName"		"SubImage"
			"xpos"			"0"
			"ypos"			"0"
			"zpos"			"0"
			"wide"			"0"
			"tall"			"0"
			"visible"		"0"
			"enabled"		"0"
			"scaleImage"	"0"
			"image"			"glyph_quit"
		}				
	}

	//BOTTOM MENU BUTTONS
	"HomeServer"
	{
		"ControlName"			"EditablePanel"
		"fieldName"				"HomeServer"
		"xpos"					"35"
		"ypos"					"r30"
		"zpos"					"1"
		"wide"					"14"
		"tall"					"14"
		"visible"				"1"
		"PaintBackgroundType"	"0"
		"bgcolor_override"	"Blank"

		"SubButton"
		{
			"ControlName"				"CExImageButton"
			"fieldName"					"SubButton"
			"xpos"						"0"
			"ypos"						"0"
			"wide"						"14"
			"tall"						"14"
			"autoResize"				"0"
			"pinCorner"					"3"
			"visible"					"1"
			"enabled"					"1"
			"tabPosition"				"0"
			"use_proportional_insets"	"1"
			"font"						""
			"textAlignment"				"center"
			"dulltext"					"0"
			"brighttext"				"0"
			"default"					"1"
			"sound_depressed"			"ui/buttonclick.wav"
			"sound_released"			"ui/buttonclickrelease.wav"
			
			"border_default"			"NoBorder"
			"border_armed"				"NoBorder"
			"paintbackground"			"0"
			
			"image_drawcolor"	"malWhite"
			"image_armedcolor"	"255 45 38 255"
			"SubImage"
			{
				"ControlName"	"ImagePanel"
				"fieldName"		"SubImage"
				"xpos"			"cs-0.5"
				"ypos"			"cs-0.5"
				"zpos"			"1"
				"wide"			"14"
				"tall"			"14"
				"visible"		"1"
				"enabled"		"1"
				"scaleImage"	"1"
				"image"			"replay/thumbnails/buttons/heart"
				"proportionaltoparent"	"1"
			}
		}
	}
	
	"RequestCoachButton"	//IN-GAME BUTTON
	{
		"ControlName"	"EditablePanel"
		"fieldname"		"RequestCoachButton"
		"xpos"			"35"
		"ypos"			"r30"
		"zpos"			"0"
		"wide"			"14"
		"tall"			"14"
		"visible"		"1"

		"SubButton"
		{
			"ControlName"	"CExImageButton"
			"fieldName"		"SubButton"
			"xpos"			"0"
			"ypos"			"0"
			"wide"			"14"
			"tall"			"14"
			"autoResize"	"0"
			"pinCorner"		"3"
			"visible"		"1"
			"enabled"		"1"
			"tabPosition"	"0"
			"textinsetx"	"25"
			"use_proportional_insets" "1"
			"font"			"Regular12"
			"textAlignment"	"west"
			"dulltext"		"0"
			"brighttext"	"0"
			"default"		"1"
			"sound_depressed"	"UI/buttonclick.wav"
			"sound_released"	"UI/buttonclickrelease.wav"
			
			"border_default"	"NoBorder"
			"border_armed"		"NoBorder"
			"paintbackground"	"0"
			
			"image_drawcolor"	"malWhite"
			"image_armedcolor"	"0 191 255 255"
			
			"SubImage"
			{
				"ControlName"	"ImagePanel"
				"fieldName"		"SubImage"
				"xpos"			"1"
				"ypos"			"1"
				"zpos"			"1"
				"wide"			"12"
				"tall"			"12"
				"visible"		"1"
				"enabled"		"1"
				"image"			"glyph_create"
				"scaleImage"	"1"
			}				
		}
	}
	
	"CoachPlayersButton"
	{
		"ControlName"	"CExImageButton"
		"fieldName"		"CoachPlayersButton"
		"xpos"			"55"
		"ypos"			"r30"
		"zpos"			"0"
		"wide"			"14"
		"tall"			"14"
		"autoResize"	"0"
		"pinCorner"		"0"
		"visible"		"1"
		"enabled"		"1"
		"tabPosition"	"0"
		"labelText"		""
		"font"			"Regular12"
		"textAlignment"	"center"
		"dulltext"		"0"
		"brighttext"	"0"
		"default"		"1"
		"Command"		"engine cl_coach_toggle"
		"sound_depressed"	"UI/buttonclick.wav"
		"sound_released"	"UI/buttonclickrelease.wav"
		
		"border_default"	"NoBorder"
		"border_armed"		"NoBorder"
		"paintbackground"	"0"
		
		"image_drawcolor"	"malWhite"
		"image_armedcolor"	"0 191 255 255"
		"SubImage"
		{
			"ControlName"	"ImagePanel"
			"fieldName"		"SubImage"
			"xpos"			"1"
			"ypos"			"1"
			"zpos"			"1"
			"wide"			"12"
			"tall"			"12"
			"visible"		"1"
			"enabled"		"1"
			"image"			"glyph_commentary"
			"scaleImage"	"1"
		}				
	}
	
	"ReplayButton"
	{
		"ControlName"	"CExImageButton"
		"fieldName"		"ReplayButton"
		"xpos"			"75"
		"ypos"			"r30"
		"zpos"			"0"
		"wide"			"14"
		"tall"			"14"
		"autoResize"	"0"
		"pinCorner"		"3"
		"visible"		"1"
		"enabled"		"1"
		"tabPosition"	"0"
		"labelText"		""
		"font"			"Regular12"
		"textAlignment"	"center"
		"dulltext"		"0"
		"brighttext"	"0"
		"default"		"1"
		"Command"		"engine replay_reloadbrowser"

		"navUp"			"VRModeButton"
		"navLeft"		"AchievementsButton"
		"navRight"		"CoachPlayersButton"

		"sound_depressed"	"UI/buttonclick.wav"
		"sound_released"	"UI/buttonclickrelease.wav"
				
		"border_default"	"NoBorder"
		"border_armed"		"NoBorder"
		"paintbackground"	"0"
		
		"image_drawcolor"	"malWhite"
		"image_armedcolor"	"0 191 255 255"
		"SubImage"
		{
			"ControlName"	"ImagePanel"
			"fieldName"		"SubImage"
			"xpos"			"1"
			"ypos"			"1"
			"zpos"			"1"
			"wide"			"12"
			"tall"			"12"
			"visible"		"1"
			"enabled"		"1"
			"image"			"glyph_tv"
			"scaleImage"	"1"
		}
	}
	
	"AchievementsButton"
	{
		"ControlName"	"CExImageButton"
		"fieldName"		"AchievementsButton"
		"xpos"			"95"
		"ypos"			"r30"
		"zpos"			"0"
		"wide"			"14"
		"tall"			"14"
		"autoResize"	"0"
		"pinCorner"		"0"
		"visible"		"1"
		"enabled"		"1"
		"tabPosition"	"0"
		"labelText"		""
		"font"			"Regular12"
		"textAlignment"	"center"
		"dulltext"		"0"
		"brighttext"	"0"
		"default"		"1"
		"Command"		"OpenAchievementsDialog"
		"sound_depressed"	"UI/buttonclick.wav"
		"sound_released"	"UI/buttonclickrelease.wav"
		
		"border_default"	"NoBorder"
		"border_armed"		"NoBorder"
		"paintbackground"	"0"
		
		"image_drawcolor"	"malWhite"
		"image_armedcolor"	"0 191 255 255"
		"SubImage"
		{
			"ControlName"	"ImagePanel"
			"fieldName"		"SubImage"
			"xpos"			"1"
			"ypos"			"1"
			"zpos"			"1"
			"wide"			"12"
			"tall"			"12"
			"visible"		"1"
			"enabled"		"1"
			"image"			"glyph_achievements"
			"scaleImage"	"1"
		}				
	}
	
	"SteamWorkshopButton"
	{
		"ControlName"	"EditablePanel"
		"fieldname"		"SteamWorkshopButton"
		"xpos"			"115"
		"ypos"			"r30"
		"zpos"			"0"
		"wide"			"14"
		"tall"			"14"
		"visible"		"1"
		"PaintBackgroundType"	"0"
	
		"SubButton"
		{
			"ControlName"	"CExImageButton"
			"fieldName"		"SubButton"
			"xpos"			"0"
			"ypos"			"0"
			"wide"			"14"
			"tall"			"14"
			"autoResize"	"0"
			"pinCorner"		"3"
			"visible"		"1"
			"enabled"		"1"
			"tabPosition"	"0"
			"textinsetx"	"25"
			"use_proportional_insets" "1"
			"font"			"Regular12"
			"textAlignment"	"west"
			"dulltext"		"0"
			"brighttext"	"0"
			"default"		"1"
			"sound_depressed"	"UI/buttonclick.wav"
			"sound_released"	"UI/buttonclickrelease.wav"
			
			"border_default"	"NoBorder"
			"border_armed"		"NoBorder"
			"paintbackground"	"0"
			
			"defaultFgColor_override" "46 43 42 255"
			"armedFgColor_override" "235 226 202 255"
			"depressedFgColor_override" "46 43 42 255"
			
			"image_drawcolor"	"malWhite"
			"image_armedcolor"	"0 191 255 255"
			
			"SubImage"
			{
				"ControlName"	"ImagePanel"
				"fieldName"		"SubImage"
				"xpos"			"1"
				"ypos"			"1"
				"zpos"			"1"
				"wide"			"12"
				"tall"			"12"
				"visible"		"1"
				"enabled"		"1"
				"scaleImage"	"1"
			}		
		}
	}

	//UNUSED MENU BUTTONS

	"HUDReload"
	{
		"ControlName"	"CExImageButton"
		"fieldName"		"HUDReload"
		"xpos"			"0"
		"ypos"			"0"
		"zpos"			"1"
		"wide"			"30"
		"tall"			"20"
		"autoResize"	"0"
		"pinCorner"		"3"
		"visible"		"0"
		"enabled"		"0"
		"tabPosition"	"0"
		"labelText"		""
		"font"			""
		"textAlignment"	"center"
		"dulltext"		"0"
		"brighttext"	"0"
		"default"		"1"
		"Command"		"engine hud_reloadscheme"
		"sound_depressed"	"UI/buttonclick.wav"
		"sound_released"	"UI/buttonclickrelease.wav"

		"pin_to_sibling"	"WatchStreamButton"
		"pin_corner_to_sibling"	"PIN_TOPLEFT"
		"pin_to_sibling_corner"	"PIN_BOTTOMLEFT"
		
		"border_default"	"NoBorder"
		"border_armed"		"NoBorder"
		"paintbackground"	"1"

		"defaultFgColor_override" "Blank"
		"defaultBgColor_override"	"HudBlack"
		"armedFgColor_override"	"Blank"
		"armedBgColor_override"	"HudBlack"
		
		"image_drawcolor"	"malWhite"
		"image_armedcolor"	"0 191 255 255"
		"SubImage"
		{
			"ControlName"	"ImagePanel"
			"fieldName"		"SubImage"
			"xpos"			"cs-0.5"
			"ypos"			"cs-0.5"
			"zpos"			"1"
			"wide"			"14"
			"tall"			"14"
			"visible"		"1"
			"enabled"		"1"
			"scaleImage"	"1"
			"image"			"replay/thumbnails/buttons/refresh"
			"proportionaltoparent"	"1"
		}
	}	

	"NewUserForumsButton"
	{
		"ControlName"	"CExImageButton"
		"fieldName"		"NewUserForumsButton"
		"xpos"			"45"
		"ypos"			"r30"
		"zpos"			"0"
		"wide"			"14"
		"tall"			"14"
		"autoResize"	"0"
		"pinCorner"		"0"
		"visible"		"0"
		"enabled"		"0"
		"tabPosition"	"0"
		"labelText"		""
		"font"			"Regular12"
		"textAlignment"	"center"
		"dulltext"		"0"
		"brighttext"	"0"
		"default"		"1"
		"Command"		"view_newuser_forums"
		"sound_depressed"	"UI/buttonclick.wav"
		"sound_released"	"UI/buttonclickrelease.wav"
		"PaintBackgroundType" "0"
		
		"border_default"	"NoBorder"
		"border_armed"		"NoBorder"
		"paintbackground"	"0"
		
		"image_drawcolor"	"malWhite"
		"image_armedcolor"	"169 123 53 255"
		"SubImage"
		{
			"ControlName"	"ImagePanel"
			"fieldName"		"SubImage"
			"xpos"			"1"
			"ypos"			"1"
			"zpos"			"1"
			"wide"			"12"
			"tall"			"12"
			"visible"		"1"
			"enabled"		"1"
			"image"			"glyph_tutorial"
			"scaleImage"	"1"
		}				
	}
	
	"CommentaryButton"
	{
		"ControlName"	"CExImageButton"
		"fieldName"		"CommentaryButton"
		"xpos"			"85"
		"ypos"			"r30"
		"zpos"			"0"
		"wide"			"14"
		"tall"			"14"
		"autoResize"	"0"
		"pinCorner"		"0"
		"visible"		"0"
		"enabled"		"0"
		"tabPosition"	"0"
		"labelText"		""
		"font"			"Regular12"
		"textAlignment"	"center"
		"dulltext"		"0"
		"brighttext"	"0"
		"default"		"1"
		"Command"		"OpenLoadSingleplayerCommentaryDialog"
		"sound_depressed"	"UI/buttonclick.wav"
		"sound_released"	"UI/buttonclickrelease.wav"
		
		"border_default"	"NoBorder"
		"border_armed"		"NoBorder"
		"paintbackground"	"0"
		
		"image_drawcolor"	"malWhite"
		"image_armedcolor"	"169 123 53 255"
		"SubImage"
		{
			"ControlName"	"ImagePanel"
			"fieldName"		"SubImage"
			"xpos"			"1"
			"ypos"			"1"
			"zpos"			"1"
			"wide"			"12"
			"tall"			"12"
			"visible"		"1"
			"enabled"		"1"
			"image"			"glyph_forums"
			"scaleImage"	"1"
		}				
	}
	
	"ReportBugButton"
	{
		"ControlName"	"CExImageButton"
		"fieldName"		"ReportBugButton"
		"xpos"			"105"
		"ypos"			"r30"
		"zpos"			"0"
		"wide"			"14"
		"tall"			"14"
		"autoResize"	"0"
		"pinCorner"		"0"
		"visible"		"0"
		"enabled"		"0"
		"tabPosition"	"0"
		"labelText"		""
		"font"			"Regular12"
		"textAlignment"	"center"
		"dulltext"		"0"
		"brighttext"	"0"
		"default"		"1"
		"Command"		"engine bug"
		"sound_depressed"	"UI/buttonclick.wav"
		"sound_released"	"UI/buttonclickrelease.wav"
		
		"border_default"	"NoBorder"
		"border_armed"		"NoBorder"
		"paintbackground"	"0"
		
		"image_drawcolor"	"malWhite"
		"image_armedcolor"	"169 123 53 255"
		"SubImage"
		{
			"ControlName"	"ImagePanel"
			"fieldName"		"SubImage"
			"xpos"			"1"
			"ypos"			"1"
			"zpos"			"1"
			"wide"			"12"
			"tall"			"12"
			"visible"		"1"
			"enabled"		"1"
			"image"			"glyph_bug"
			"scaleImage"	"1"
		}				
	}
	//END OF MENU

	"EventPromo"
	{
		"ControlName"	"EditablePanel"
		"fieldname"		"EventPromo"
		"xpos"			"180"
		"ypos"			"30"
		"zpos"			"-50"
		"wide"			"270"
		"tall"			"75"
		"visible"		"0"

		"Background"
		{
			"ControlName"	"EditablePanel"
			"fieldname"		"Background"
			"xpos"			"0"
			"ypos"			"20"
			"zpos"			"0"
			"wide"			"260"
			"tall"			"120"
			"visible"		"0"
			"PaintBackgroundType"	"0"
			"proportionaltoparent"	"1"

			"paintborder"	"0"
			"border"		"malPanelBorder"
			"bgcolor_override"	"malDarkGrey"

			"TitleLabel"
			{
				"ControlName"	"CExLabel"
				"fieldName"		"TitleLabel"
				"font"			"aBold16"
				"labelText"		"#MMenu_Update"
				"textAlignment"	"west"
				"xpos"			"12"
				"ypos"			"0"
				"wide"			"f0"
				"tall"			"30"
				"autoResize"	"0"
				"pinCorner"		"0"
				"visible"		"0"
				"enabled"		"1"
				"textinsetx"	"0"
				"fgcolor_override"	"malWhite"
			}

			"ViewDetailsButton"
			{
				"ControlName"	"EditablePanel"
				"fieldname"		"ViewDetailsButton"
				"xpos"			"p0.02"
				"ypos"			"27"
				"zpos"			"11"
				"wide"			"p0.48"
				"tall"			"20"
				"visible"		"0"
				"PaintBackgroundType"	"0"
				"proportionaltoparent"	"1"

				"SubButton"
				{
					"ControlName"	"CExImageButton"
					"fieldName"		"SubButton"
					"xpos"			"cs-0.5"
					"ypos"			"0"
					"wide"			"f0"
					"tall"			"f0"
					"autoResize"	"0"
					"pinCorner"		"3"
					"visible"		"1"
					"enabled"		"1"
					"tabPosition"	"0"
					"use_proportional_insets" "1"
					"font"			"Regular12"
					"textAlignment"	"center"
					"dulltext"		"0"
					"brighttext"	"0"
					"default"		"1"
					"sound_depressed"	"UI/buttonclick.wav"
					"sound_released"	"UI/buttonclickrelease.wav"
					"labeltext"		"#MMenu_ViewUpdateDetails"
					"proportionaltoparent"	"1"
					"command"		"view_update_page"
					"actionsignallevel"	"4"
			
					"border_default"	"NoBorder"
					"border_armed"		"NoBorder"
					"paintbackground"	"1"
			
					"defaultFgColor_override" "malWhite"
					"armedFgColor_override" "malWhite"
					"depressedFgColor_override" "malWhite"
					"defaultBgColor_override" "malBlack"
					"armedBgColor_override" "malYellow"
					"depressedBgColor_override" "malYellow"
				}
			}

			"ViewWarButton"
			{
				"ControlName"	"EditablePanel"
				"fieldname"		"ViewWarButton"
				"xpos"			"p0.5"
				"ypos"			"27"
				"zpos"			"11"
				"wide"			"p0.48"
				"tall"			"20"
				"visible"		"0"
				"PaintBackgroundType"	"0"
				"proportionaltoparent"	"1"

				"SubButton"
				{
					"ControlName"	"CExImageButton"
					"fieldName"		"SubButton"
					"xpos"			"cs-0.5"
					"ypos"			"0"
					"wide"			"f0"
					"tall"			"f0"
					"autoResize"	"0"
					"pinCorner"		"3"
					"visible"		"1"
					"enabled"		"1"
					"tabPosition"	"0"
					"use_proportional_insets" "1"
					"font"			"Regular12"
					"textAlignment"	"center"
					"dulltext"		"0"
					"brighttext"	"0"
					"default"		"1"
					"sound_depressed"	"UI/buttonclick.wav"
					"sound_released"	"UI/buttonclickrelease.wav"
					"labeltext"		"#MMenu_ViewWar"
					"proportionaltoparent"	"1"
					"command"		"view_war"
					"actionsignallevel"	"4"
			
					"border_default"	"NoBorder"
					"border_armed"		"NoBorder"
					"paintbackground"	"1"
			
					"defaultFgColor_override" "malWhite"
					"armedFgColor_override" "malWhite"
					"depressedFgColor_override" "malWhite"
					"defaultBgColor_override" "malBlack"
					"armedBgColor_override" "malYellow"
					"depressedBgColor_override" "malYellow"
				}
			}
			
			"CyclingAd"
			{
				"ControlName"			"CCyclingAdContainerPanel"
				"fieldName"				"CyclingAd"
				"xpos"					"5"
				"ypos"					"p0.41"
				"zpos"					"100"
				"wide"					"f10"
				"tall"					"p0.5"
				"visible"				"0"
				"enabled"				"0"
				"scaleImage"			"1"
				"proportionaltoparent"	"1"

				"bgcolor_override"		"0 0 0 255"

				"items"
				{
					"0"
					{
						"item"		"Unused Campaign 3 Pass"
						"show_market"	"0"
					}
					"1"
					{
						"item"		"Abominable Cosmetic Key"
						"show_market"	"0"
					}
					"2"
					{
						"item"		"Abominable Cosmetic Case"
						"show_market"	"1"
					}
					"3"
					{
						"item"		"Unleash the Beast Cosmetic Key"
						"show_market"	"0"
					}
					"4"
					{
						"item"		"Unleash the Beast Cosmetic Case"
						"show_market"	"1"
					}
					"5"
					{
						"item"		"Jungle Jackpot War Paint Key"
						"show_market"	"0"
					}
					"6"
					{
						"item"		"Jungle Jackpot War Paint Case"
						"show_market"	"1"
					}
					"7"
					{
						"item"		"Infernal Reward War Paint Key"
						"show_market"	"0"
					}
					"8"
					{
						"item"		"Infernal Reward War Paint Case"
						"show_market"	"1"
					}
					"9"
					{
						"item"		"Taunt: The Dueling Banjo"
						"show_market"	"0"
					}
					"10"
					{
						"item"		"Taunt: The Russian Arms Race"
						"show_market"	"0"
					}
					"11"
					{
						"item"		"Taunt: The Soviet Strongarm"
						"show_market"	"0"
					}
					"12"
					{
						"item"		"Taunt: The Jumping Jack"
						"show_market"	"0"
					}
					"13"
					{
						"item"		"Taunt: The Headcase"
						"show_market"	"0"
					}
				}
			}

		} // Background

	} // EventPromo

	"BackgroundFooter"
	{
		"ControlName"	"ImagePanel"
		"fieldName"		"BackgroundFooter"
		"xpos"			"0"
		"ypos"			"0"
		"zpos"			"0"
		"wide"			"0"
		"tall"			"0"
		"visible"		"0"
		"enabled"		"0"
		"image"			"loadout_bottom_gradient"
		"tileImage"		"0"
	}				
	"FooterLine"
	{
		"ControlName"	"ImagePanel"
		"fieldName"		"FooterLine"
		"xpos"			"0"
		"ypos"			"0"
		"zpos"			"0"
		"wide"			"0"
		"tall"			"0"
		"visible"		"0"
		"enabled"		"0"
		"image"			"loadout_solid_line"
		"scaleImage"	"0"
	}
	
	"BackToReplaysButton"
	{
		"ControlName"	"CExImageButton"
		"fieldName"		"BackToReplaysButton"
		"xpos"			"c-300"
		"ypos"			"437"
		"zpos"			"1"
		"wide"			"170"
		"tall"			"25"
		"autoResize"	"0"
		"pinCorner"		"3"
		"visible"		"0"
		"enabled"		"1"
		"tabPosition"	"0"
		"labelText"		"#GameUI_GameMenu_ExitReplay"
		"font"			"Regular12"
		"textAlignment"	"west"
		"textinsetx"	"35"
		"use_proportional_insets" "1"
		"dulltext"		"0"
		"brighttext"	"0"
		"default"		"1"
		"Command"		"exitreplayeditor"
		"sound_depressed"	"UI/buttonclick.wav"
		"sound_released"	"UI/buttonclickrelease.wav"
		
		"image_drawcolor"	"235 226 202 255"
		"SubImage"
		{
			"ControlName"	"ImagePanel"
			"fieldName"		"SubImage"
			"xpos"			"16"
			"ypos"			"6"
			"zpos"			"1"
			"wide"			"14"
			"tall"			"14"
			"visible"		"1"
			"enabled"		"1"
			"scaleImage"	"1"
			"image"			"glyph_quit"
		}				
	}			

	"icon_generator"
	{
		"ControlName"		"CEmbeddedItemModelPanel"
		"fieldName"		"icon_generator"

		"xpos"			"0"
		"ypos"			"0"
		"zpos"			"1"		
		"wide"			"300"
		"tall"			"300"
		"autoResize"		"0"
		"pinCorner"		"0"
		"visible"		"1"
		"enabled"		"1"
		"useparentbg"		"1"
	
		"inset_eq_x"	"2"
		"inset_eq_y"	"2"

		"fov"			"54"
		"start_framed"		"1"

		"disable_manipulation"	"1"

		"model"
		{
			"angles_x"		"10"
			"angles_y"		"130"
			"angles_z"		"0"
		}
	}
}
